ex8/ex8-2-dm/pu.vcd
$date
	Thu Jun 11 03:33:49 2020
$end
$version
	Icarus Verilog
$end
$timescale
	1s
$end
$scope module test $end
$scope module pu $end
$var wire 1 ! clk $end
$var wire 1 " rst $end
$var wire 1 # we $end
$var wire 16 $ wd [15:0] $end
$var wire 2 % wad [1:0] $end
$var wire 6 & pca [5:0] $end
$var wire 3 ' op [2:0] $end
$var wire 16 ( o [15:0] $end
$var wire 16 ) lp [15:0] $end
$var wire 2 * liop [1:0] $end
$var wire 8 + iv [7:0] $end
$var wire 1 , h $end
$var wire 1 - dmwe $end
$var wire 1 . dms $end
$var wire 16 / dmrd [15:0] $end
$var wire 2 0 brad [1:0] $end
$var wire 16 1 bo [15:0] $end
$var wire 16 2 b [15:0] $end
$var wire 2 3 arad [1:0] $end
$var wire 16 4 a [15:0] $end
$scope module alu $end
$var wire 3 5 op [2:0] $end
$var wire 16 6 b [15:0] $end
$var wire 16 7 a [15:0] $end
$var reg 16 8 r [15:0] $end
$upscope $end
$scope module dec $end
$var wire 16 9 o [15:0] $end
$var reg 2 : arad [1:0] $end
$var reg 2 ; brad [1:0] $end
$var reg 1 . dms $end
$var reg 1 - dmwe $end
$var reg 1 , h $end
$var reg 8 < iv [7:0] $end
$var reg 2 = liop [1:0] $end
$var reg 3 > op [2:0] $end
$var reg 2 ? wad [1:0] $end
$var reg 1 # we $end
$upscope $end
$scope module dmem $end
$var wire 8 @ ad [7:0] $end
$var wire 1 ! clk $end
$var wire 16 A rd [15:0] $end
$var wire 1 - we $end
$var wire 16 B wd [15:0] $end
$upscope $end
$scope module dmsel $end
$var wire 16 C a [15:0] $end
$var wire 16 D b [15:0] $end
$var wire 1 . s $end
$var reg 16 E o [15:0] $end
$upscope $end
$scope module imem $end
$var wire 6 F pc [5:0] $end
$var reg 16 G o [15:0] $end
$upscope $end
$scope module lidx $end
$var wire 8 H iv [7:0] $end
$var wire 2 I op [1:0] $end
$var wire 16 J i [15:0] $end
$var reg 16 K o [15:0] $end
$upscope $end
$scope module pc $end
$var wire 1 ! clk $end
$var wire 1 , halt $end
$var wire 1 " rst $end
$var reg 6 L pc [5:0] $end
$upscope $end
$scope module rega $end
$var wire 16 M a [15:0] $end
$var wire 2 N arad [1:0] $end
$var wire 16 O b [15:0] $end
$var wire 2 P brad [1:0] $end
$var wire 1 ! clk $end
$var wire 1 " rst $end
$var wire 2 Q wad [1:0] $end
$var wire 16 R wd [15:0] $end
$var wire 1 # we $end
$upscope $end
$upscope $end
$upscope $end
$enddefinitions $end
#0
$dumpvars
b10101001 R
b0 Q
b0 P
b0 O
b0 N
b0 M
b0 L
b10101001 K
b0 J
b10 I
b10101001 H
b100000010101001 G
b0 F
b10101001 E
bx D
b10101001 C
b10101001 B
bx A
b10101001 @
b0 ?
b10 >
b10 =
b10101001 <
b0 ;
b0 :
b100000010101001 9
b10101001 8
b0 7
b10101001 6
b10 5
b0 4
b0 3
b0 2
b10101001 1
b0 0
bx /
0.
0-
0,
b10101001 +
b10 *
b10101001 )
b100000010101001 (
b10 '
b0 &
b0 %
b10101001 $
1#
1"
0!
$end
#5
1!
#10
0!
#15
1!
#20
0!
0"
#25
b10010101001 $
b10010101001 E
b10010101001 R
b10010101001 )
b10010101001 8
b10010101001 C
b10010101001 1
b10010101001 6
b10010101001 B
b10010101001 K
b100 +
b100 <
b100 H
b11 *
b11 =
b11 I
1#
b10 '
b10 5
b10 >
b101000000000100 (
b101000000000100 9
b101000000000100 G
b1 &
b1 F
b1 L
b10101001 4
b10101001 7
b10101001 M
b10101001 2
b10101001 J
b10101001 O
1!
#30
0!
#35
b1010110 $
b1010110 E
b1010110 R
b1010110 @
b1010110 )
b1010110 8
b1010110 C
b1010110 1
b1010110 6
b1010110 B
b1010110 K
b1 0
b1 ;
b1 P
b1 %
b1 ?
b1 Q
b1010110 +
b1010110 <
b1010110 H
b10 *
b10 =
b10 I
1#
b10 '
b10 5
b10 >
b100010101010110 (
b100010101010110 9
b100010101010110 G
b10010101001 4
b10010101001 7
b10010101001 M
b0 2
b0 J
b0 O
b10 &
b10 F
b10 L
1!
#40
0!
#45
b10001010110 $
b10001010110 E
b10001010110 R
b10001010110 )
b10001010110 8
b10001010110 C
b10001010110 1
b10001010110 6
b10001010110 B
b10001010110 K
b100 +
b100 <
b100 H
b11 *
b11 =
b11 I
b1 %
b1 ?
b1 Q
1#
b10 '
b10 5
b10 >
b1 0
b1 ;
b1 P
b101010100000100 (
b101010100000100 9
b101010100000100 G
b11 &
b11 F
b11 L
b1010110 2
b1010110 J
b1010110 O
1!
#50
0!
#55
b100011111111 $
b100011111111 E
b100011111111 R
b11111111 @
b100011111111 )
b100011111111 8
b100011111111 C
b0 +
b0 <
b0 H
b0 *
b0 =
b0 I
b10 %
b10 ?
b10 Q
1#
b0 '
b0 5
b0 >
b1 0
b1 ;
b1 P
b100000000101 (
b100000000101 9
b100000000101 G
b10001010110 2
b10001010110 J
b10001010110 O
b100 &
b100 F
b100 L
1!
#60
0!
#65
b1 $
b1 E
b1 R
b1 @
b1 )
b1 8
b1 C
b1 1
b1 6
b1 B
b1 K
b1 +
b1 <
b1 H
b10 *
b10 =
b10 I
b10 '
b10 5
b10 >
b11 %
b11 ?
b11 Q
1#
b0 2
b0 J
b0 O
b11 0
b11 ;
b11 P
b100111100000001 (
b100111100000001 9
b100111100000001 G
b101 &
b101 F
b101 L
1!
#70
0!
#75
b0 +
b0 <
b0 H
b11 *
b11 =
b11 I
b11 %
b11 ?
b11 Q
1#
b10 '
b10 5
b10 >
b11 0
b11 ;
b11 P
b101111100000000 (
b101111100000000 9
b101111100000000 G
b1 2
b1 J
b1 O
b110 &
b110 F
b110 L
1!
#80
0!
#85
b10 $
b10 E
b10 R
b10 @
b10 )
b10 8
b10 C
1-
b1 +
b1 <
b1 H
b1 4
b1 7
b1 M
b11 3
b11 :
b11 N
b1 *
b1 =
b1 I
b0 %
b0 ?
b0 Q
1#
b0 '
b0 5
b0 >
b10010101001 2
b10010101001 J
b10010101001 O
b0 0
b0 ;
b0 P
b1010001100000001 (
b1010001100000001 9
b1010001100000001 G
b111 &
b111 F
b111 L
1!
#90
0!
#95
b0 $
b0 E
b0 R
b0 @
b0 1
b0 6
b0 B
b0 K
b0 )
b0 8
b0 C
b10 '
b10 5
b10 >
b11 0
b11 ;
b11 P
b11 %
b11 ?
b11 Q
0-
b0 +
b0 <
b0 H
b10 *
b10 =
b10 I
1#
b10 4
b10 7
b10 M
b0 3
b0 :
b0 N
b100111100000000 (
b100111100000000 9
b100111100000000 G
bx /
bx A
bx D
b1 2
b1 J
b1 O
b1000 &
b1000 F
b1000 L
1!
#100
0!
#105
b11 *
b11 =
b11 I
b11 %
b11 ?
b11 Q
1#
b10 '
b10 5
b10 >
b11 0
b11 ;
b11 P
b101111100000000 (
b101111100000000 9
b101111100000000 G
b1001 &
b1001 F
b1001 L
b0 2
b0 J
b0 O
1!
#110
0!
#115
b10 $
b10 E
b10 R
b1 /
b1 A
b1 D
b10 @
b10 )
b10 8
b10 C
b10 1
b10 6
b10 B
b10 K
b10 +
b10 <
b10 H
b0 4
b0 7
b0 M
b11 3
b11 :
b11 N
b1 *
b1 =
b1 I
b1 %
b1 ?
b1 Q
1#
b0 '
b0 5
b0 >
b10 2
b10 J
b10 O
b0 0
b0 ;
b0 P
b1000011100000010 (
b1000011100000010 9
b1000011100000010 G
b1010 &
b1010 F
b1010 L
1!
#120
0!
#125
b100 $
b100 E
b100 R
bx /
bx A
bx D
b100 @
b100 )
b100 8
b100 C
1,
b0 +
b0 <
b0 H
b0 *
b0 =
b0 I
b0 %
b0 ?
b0 Q
0#
b10 4
b10 7
b10 M
b0 3
b0 :
b0 N
b1 (
b1 9
b1 G
b1011 &
b1011 F
b1011 L
1!
