ex9/sw.vcd
$date
	Wed Jul 15 01:30:31 2020
$end
$version
	Icarus Verilog
$end
$timescale
	1s
$end
$scope module swtest $end
$var wire 10 ! o3 [9:0] $end
$var wire 10 " o2 [9:0] $end
$var wire 10 # o1 [9:0] $end
$var wire 10 $ o0 [9:0] $end
$var reg 1 % clk $end
$var reg 10 & i0 [9:0] $end
$var reg 10 ' i1 [9:0] $end
$var reg 10 ( i2 [9:0] $end
$var reg 10 ) i3 [9:0] $end
$var reg 1 * rst $end
$scope module sw $end
$var wire 1 % clk $end
$var wire 10 + i0 [9:0] $end
$var wire 10 , i1 [9:0] $end
$var wire 10 - i2 [9:0] $end
$var wire 10 . i3 [9:0] $end
$var wire 1 * rst $end
$var wire 4 / req3 [3:0] $end
$var wire 4 0 req2 [3:0] $end
$var wire 4 1 req1 [3:0] $end
$var wire 4 2 req0 [3:0] $end
$var wire 10 3 o3 [9:0] $end
$var wire 10 4 o2 [9:0] $end
$var wire 10 5 o1 [9:0] $end
$var wire 10 6 o0 [9:0] $end
$var wire 1 7 full3 $end
$var wire 1 8 full2 $end
$var wire 1 9 full1 $end
$var wire 1 : full0 $end
$var wire 10 ; co3 [9:0] $end
$var wire 10 < co2 [9:0] $end
$var wire 10 = co1 [9:0] $end
$var wire 10 > co0 [9:0] $end
$var wire 1 ? ack33 $end
$var wire 1 @ ack32 $end
$var wire 1 A ack31 $end
$var wire 1 B ack30 $end
$var wire 1 C ack3 $end
$var wire 1 D ack23 $end
$var wire 1 E ack22 $end
$var wire 1 F ack21 $end
$var wire 1 G ack20 $end
$var wire 1 H ack2 $end
$var wire 1 I ack13 $end
$var wire 1 J ack12 $end
$var wire 1 K ack11 $end
$var wire 1 L ack10 $end
$var wire 1 M ack1 $end
$var wire 1 N ack03 $end
$var wire 1 O ack02 $end
$var wire 1 P ack01 $end
$var wire 1 Q ack00 $end
$var wire 1 R ack0 $end
$scope module ackor0 $end
$var wire 1 B ack3n $end
$var wire 1 G ack2n $end
$var wire 1 L ack1n $end
$var wire 1 Q ack0n $end
$var reg 1 R ack $end
$upscope $end
$scope module ackor1 $end
$var wire 1 A ack3n $end
$var wire 1 F ack2n $end
$var wire 1 K ack1n $end
$var wire 1 P ack0n $end
$var reg 1 M ack $end
$upscope $end
$scope module ackor2 $end
$var wire 1 @ ack3n $end
$var wire 1 E ack2n $end
$var wire 1 J ack1n $end
$var wire 1 O ack0n $end
$var reg 1 H ack $end
$upscope $end
$scope module ackor3 $end
$var wire 1 ? ack3n $end
$var wire 1 D ack2n $end
$var wire 1 I ack1n $end
$var wire 1 N ack0n $end
$var reg 1 C ack $end
$upscope $end
$scope module arb0 $end
$var wire 1 % clk $end
$var wire 1 S req0 $end
$var wire 1 T req1 $end
$var wire 1 U req2 $end
$var wire 1 V req3 $end
$var wire 1 * rst $end
$var reg 1 Q ack0 $end
$var reg 1 P ack1 $end
$var reg 1 O ack2 $end
$var reg 1 N ack3 $end
$var reg 2 W na_pc [1:0] $end
$var reg 2 X next_pc [1:0] $end
$var reg 2 Y pc [1:0] $end
$upscope $end
$scope module arb1 $end
$var wire 1 % clk $end
$var wire 1 Z req0 $end
$var wire 1 [ req1 $end
$var wire 1 \ req2 $end
$var wire 1 ] req3 $end
$var wire 1 * rst $end
$var reg 1 L ack0 $end
$var reg 1 K ack1 $end
$var reg 1 J ack2 $end
$var reg 1 I ack3 $end
$var reg 2 ^ na_pc [1:0] $end
$var reg 2 _ next_pc [1:0] $end
$var reg 2 ` pc [1:0] $end
$upscope $end
$scope module arb2 $end
$var wire 1 % clk $end
$var wire 1 a req0 $end
$var wire 1 b req1 $end
$var wire 1 c req2 $end
$var wire 1 d req3 $end
$var wire 1 * rst $end
$var reg 1 G ack0 $end
$var reg 1 F ack1 $end
$var reg 1 E ack2 $end
$var reg 1 D ack3 $end
$var reg 2 e na_pc [1:0] $end
$var reg 2 f next_pc [1:0] $end
$var reg 2 g pc [1:0] $end
$upscope $end
$scope module arb3 $end
$var wire 1 % clk $end
$var wire 1 h req0 $end
$var wire 1 i req1 $end
$var wire 1 j req2 $end
$var wire 1 k req3 $end
$var wire 1 * rst $end
$var reg 1 B ack0 $end
$var reg 1 A ack1 $end
$var reg 1 @ ack2 $end
$var reg 1 ? ack3 $end
$var reg 2 l na_pc [1:0] $end
$var reg 2 m next_pc [1:0] $end
$var reg 2 n pc [1:0] $end
$upscope $end
$scope module cb $end
$var wire 4 o ack0 [3:0] $end
$var wire 4 p ack1 [3:0] $end
$var wire 4 q ack2 [3:0] $end
$var wire 4 r ack3 [3:0] $end
$var wire 10 s o3 [9:0] $end
$var wire 10 t o2 [9:0] $end
$var wire 10 u o1 [9:0] $end
$var wire 10 v o0 [9:0] $end
$var wire 10 w co3 [9:0] $end
$var wire 10 x co2 [9:0] $end
$var wire 10 y co1 [9:0] $end
$var wire 10 z co0 [9:0] $end
$scope module cbsel0 $end
$var wire 4 { ack [3:0] $end
$var wire 10 | i3 [9:0] $end
$var wire 10 } i2 [9:0] $end
$var wire 10 ~ i1 [9:0] $end
$var wire 10 !" i0 [9:0] $end
$var reg 10 "" o [9:0] $end
$upscope $end
$scope module cbsel1 $end
$var wire 4 #" ack [3:0] $end
$var wire 10 $" i3 [9:0] $end
$var wire 10 %" i2 [9:0] $end
$var wire 10 &" i1 [9:0] $end
$var wire 10 '" i0 [9:0] $end
$var reg 10 (" o [9:0] $end
$upscope $end
$scope module cbsel2 $end
$var wire 4 )" ack [3:0] $end
$var wire 10 *" i3 [9:0] $end
$var wire 10 +" i2 [9:0] $end
$var wire 10 ," i1 [9:0] $end
$var wire 10 -" i0 [9:0] $end
$var reg 10 ." o [9:0] $end
$upscope $end
$scope module cbsel3 $end
$var wire 4 /" ack [3:0] $end
$var wire 10 0" i3 [9:0] $end
$var wire 10 1" i2 [9:0] $end
$var wire 10 2" i1 [9:0] $end
$var wire 10 3" i0 [9:0] $end
$var reg 10 4" o [9:0] $end
$upscope $end
$upscope $end
$scope module ib0 $end
$var wire 1 R ack $end
$var wire 1 % clk $end
$var wire 10 5" pkti [9:0] $end
$var wire 1 * rst $end
$var wire 1 6" we $end
$var wire 4 7" reqi [3:0] $end
$var wire 4 8" req [3:0] $end
$var wire 1 9" re $end
$var wire 10 :" pkto [9:0] $end
$var wire 10 ;" out [9:0] $end
$var wire 1 : full $end
$var wire 1 <" empty $end
$scope module fifo $end
$var wire 1 % clk $end
$var wire 10 =" in [9:0] $end
$var wire 1 * rst $end
$var wire 1 6" we $end
$var wire 1 9" re $end
$var wire 10 >" out [9:0] $end
$var wire 4 ?" headi [3:0] $end
$var reg 1 <" empty $end
$var reg 1 : full $end
$var reg 4 @" head [3:0] $end
$var reg 4 A" tail [3:0] $end
$scope module fsel $end
$var wire 1 <" empty $end
$var wire 10 B" in [9:0] $end
$var reg 10 C" out [9:0] $end
$upscope $end
$upscope $end
$scope module ibout $end
$var wire 10 D" in [9:0] $end
$var wire 1 9" re $end
$var reg 10 E" out [9:0] $end
$upscope $end
$scope module ibsm $end
$var wire 1 R ack $end
$var wire 1 % clk $end
$var wire 1 <" empty $end
$var wire 2 F" flowb [1:0] $end
$var wire 1 * rst $end
$var wire 4 G" reqi [3:0] $end
$var reg 1 9" re $end
$var reg 4 H" req [3:0] $end
$upscope $end
$scope module mkreq $end
$var wire 10 I" pkto [9:0] $end
$var reg 4 J" reqi [3:0] $end
$upscope $end
$scope module mkwe $end
$var wire 10 K" pkti [9:0] $end
$var reg 1 6" we $end
$upscope $end
$upscope $end
$scope module ib1 $end
$var wire 1 M ack $end
$var wire 1 % clk $end
$var wire 10 L" pkti [9:0] $end
$var wire 1 * rst $end
$var wire 1 M" we $end
$var wire 4 N" reqi [3:0] $end
$var wire 4 O" req [3:0] $end
$var wire 1 P" re $end
$var wire 10 Q" pkto [9:0] $end
$var wire 10 R" out [9:0] $end
$var wire 1 9 full $end
$var wire 1 S" empty $end
$scope module fifo $end
$var wire 1 % clk $end
$var wire 10 T" in [9:0] $end
$var wire 1 * rst $end
$var wire 1 M" we $end
$var wire 1 P" re $end
$var wire 10 U" out [9:0] $end
$var wire 4 V" headi [3:0] $end
$var reg 1 S" empty $end
$var reg 1 9 full $end
$var reg 4 W" head [3:0] $end
$var reg 4 X" tail [3:0] $end
$scope module fsel $end
$var wire 1 S" empty $end
$var wire 10 Y" in [9:0] $end
$var reg 10 Z" out [9:0] $end
$upscope $end
$upscope $end
$scope module ibout $end
$var wire 10 [" in [9:0] $end
$var wire 1 P" re $end
$var reg 10 \" out [9:0] $end
$upscope $end
$scope module ibsm $end
$var wire 1 M ack $end
$var wire 1 % clk $end
$var wire 1 S" empty $end
$var wire 2 ]" flowb [1:0] $end
$var wire 1 * rst $end
$var wire 4 ^" reqi [3:0] $end
$var reg 1 P" re $end
$var reg 4 _" req [3:0] $end
$upscope $end
$scope module mkreq $end
$var wire 10 `" pkto [9:0] $end
$var reg 4 a" reqi [3:0] $end
$upscope $end
$scope module mkwe $end
$var wire 10 b" pkti [9:0] $end
$var reg 1 M" we $end
$upscope $end
$upscope $end
$scope module ib2 $end
$var wire 1 H ack $end
$var wire 1 % clk $end
$var wire 10 c" pkti [9:0] $end
$var wire 1 * rst $end
$var wire 1 d" we $end
$var wire 4 e" reqi [3:0] $end
$var wire 4 f" req [3:0] $end
$var wire 1 g" re $end
$var wire 10 h" pkto [9:0] $end
$var wire 10 i" out [9:0] $end
$var wire 1 8 full $end
$var wire 1 j" empty $end
$scope module fifo $end
$var wire 1 % clk $end
$var wire 10 k" in [9:0] $end
$var wire 1 * rst $end
$var wire 1 d" we $end
$var wire 1 g" re $end
$var wire 10 l" out [9:0] $end
$var wire 4 m" headi [3:0] $end
$var reg 1 j" empty $end
$var reg 1 8 full $end
$var reg 4 n" head [3:0] $end
$var reg 4 o" tail [3:0] $end
$scope module fsel $end
$var wire 1 j" empty $end
$var wire 10 p" in [9:0] $end
$var reg 10 q" out [9:0] $end
$upscope $end
$upscope $end
$scope module ibout $end
$var wire 10 r" in [9:0] $end
$var wire 1 g" re $end
$var reg 10 s" out [9:0] $end
$upscope $end
$scope module ibsm $end
$var wire 1 H ack $end
$var wire 1 % clk $end
$var wire 1 j" empty $end
$var wire 2 t" flowb [1:0] $end
$var wire 1 * rst $end
$var wire 4 u" reqi [3:0] $end
$var reg 1 g" re $end
$var reg 4 v" req [3:0] $end
$upscope $end
$scope module mkreq $end
$var wire 10 w" pkto [9:0] $end
$var reg 4 x" reqi [3:0] $end
$upscope $end
$scope module mkwe $end
$var wire 10 y" pkti [9:0] $end
$var reg 1 d" we $end
$upscope $end
$upscope $end
$scope module ib3 $end
$var wire 1 C ack $end
$var wire 1 % clk $end
$var wire 10 z" pkti [9:0] $end
$var wire 1 * rst $end
$var wire 1 {" we $end
$var wire 4 |" reqi [3:0] $end
$var wire 4 }" req [3:0] $end
$var wire 1 ~" re $end
$var wire 10 !# pkto [9:0] $end
$var wire 10 "# out [9:0] $end
$var wire 1 7 full $end
$var wire 1 ## empty $end
$scope module fifo $end
$var wire 1 % clk $end
$var wire 10 $# in [9:0] $end
$var wire 1 * rst $end
$var wire 1 {" we $end
$var wire 1 ~" re $end
$var wire 10 %# out [9:0] $end
$var wire 4 &# headi [3:0] $end
$var reg 1 ## empty $end
$var reg 1 7 full $end
$var reg 4 '# head [3:0] $end
$var reg 4 (# tail [3:0] $end
$scope module fsel $end
$var wire 1 ## empty $end
$var wire 10 )# in [9:0] $end
$var reg 10 *# out [9:0] $end
$upscope $end
$upscope $end
$scope module ibout $end
$var wire 10 +# in [9:0] $end
$var wire 1 ~" re $end
$var reg 10 ,# out [9:0] $end
$upscope $end
$scope module ibsm $end
$var wire 1 C ack $end
$var wire 1 % clk $end
$var wire 1 ## empty $end
$var wire 2 -# flowb [1:0] $end
$var wire 1 * rst $end
$var wire 4 .# reqi [3:0] $end
$var reg 1 ~" re $end
$var reg 4 /# req [3:0] $end
$upscope $end
$scope module mkreq $end
$var wire 10 0# pkto [9:0] $end
$var reg 4 1# reqi [3:0] $end
$upscope $end
$scope module mkwe $end
$var wire 10 2# pkti [9:0] $end
$var reg 1 {" we $end
$upscope $end
$upscope $end
$upscope $end
$upscope $end
$enddefinitions $end
#0
$dumpvars
b0 2#
bx 1#
bx 0#
bx /#
bx .#
bx -#
bx ,#
bx +#
bx *#
bx )#
bx (#
bx '#
bx &#
bx %#
b0 $#
x##
bx "#
bx !#
x~"
bx }"
bx |"
0{"
b0 z"
b0 y"
bx x"
bx w"
bx v"
bx u"
bx t"
bx s"
bx r"
bx q"
bx p"
bx o"
bx n"
bx m"
bx l"
b0 k"
xj"
bx i"
bx h"
xg"
bx f"
bx e"
0d"
b0 c"
b0 b"
bx a"
bx `"
bx _"
bx ^"
bx ]"
bx \"
bx ["
bx Z"
bx Y"
bx X"
bx W"
bx V"
bx U"
b0 T"
xS"
bx R"
bx Q"
xP"
bx O"
bx N"
0M"
b0 L"
b0 K"
bx J"
bx I"
bx H"
bx G"
bx F"
bx E"
bx D"
bx C"
bx B"
bx A"
bx @"
bx ?"
bx >"
b0 ="
x<"
bx ;"
bx :"
x9"
bx 8"
bx 7"
06"
b0 5"
b0 4"
bx 3"
bx 2"
bx 1"
bx 0"
b0 /"
b0 ."
bx -"
bx ,"
bx +"
bx *"
b0 )"
b0 ("
bx '"
bx &"
bx %"
bx $"
b0 #"
b0 ""
bx !"
bx ~
bx }
bx |
b0 {
bx z
bx y
bx x
bx w
b0 v
b0 u
b0 t
b0 s
b0 r
b0 q
b0 p
b0 o
bx n
bx m
b1 l
xk
xj
xi
xh
bx g
bx f
b1 e
xd
xc
xb
xa
bx `
bx _
b1 ^
x]
x\
x[
xZ
bx Y
bx X
b1 W
xV
xU
xT
xS
0R
0Q
0P
0O
0N
0M
0L
0K
0J
0I
0H
0G
0F
0E
0D
0C
0B
0A
0@
0?
bx >
bx =
bx <
bx ;
x:
x9
x8
x7
b0 6
b0 5
b0 4
b0 3
bx 2
bx 1
bx 0
bx /
b0 .
b0 -
b0 ,
b0 +
1*
b0 )
b0 (
b0 '
b0 &
0%
b0 $
b0 #
b0 "
b0 !
$end
#5
b1 7"
b1 G"
b1 J"
b1 N"
b1 ^"
b1 a"
b1 e"
b1 u"
b1 x"
b1 |"
b1 .#
b1 1#
b0 F"
b0 ]"
b0 t"
b0 -#
b0 :"
b0 >"
b0 C"
b0 D"
b0 I"
b0 Q"
b0 U"
b0 Z"
b0 ["
b0 `"
b0 h"
b0 l"
b0 q"
b0 r"
b0 w"
b0 !#
b0 %#
b0 *#
b0 +#
b0 0#
0:
1<"
0h
0a
0Z
0S
b0 >
b0 z
b0 !"
b0 '"
b0 -"
b0 3"
b0 ;"
b0 E"
09
1S"
0i
0b
0[
0T
b0 =
b0 y
b0 ~
b0 &"
b0 ,"
b0 2"
b0 R"
b0 \"
08
1j"
0j
0c
0\
0U
b0 <
b0 x
b0 }
b0 %"
b0 +"
b0 1"
b0 i"
b0 s"
07
1##
0k
0d
0]
0V
b0 ;
b0 w
b0 |
b0 $"
b0 *"
b0 0"
b0 "#
b0 ,#
b0 A"
b1 ?"
b0 @"
b0 2
b0 8"
b0 H"
09"
b0 X"
b1 V"
b0 W"
b0 1
b0 O"
b0 _"
0P"
b0 o"
b1 m"
b0 n"
b0 0
b0 f"
b0 v"
0g"
b0 (#
b1 &#
b0 '#
b0 /
b0 }"
b0 /#
0~"
b1 X
b0 Y
b1 _
b0 `
b1 f
b0 g
b1 m
b0 n
1%
#10
0%
0*
#15
b10 l
b10 e
b10 ^
b10 W
b1 n
b1 g
b1 `
b1 Y
1%
#20
16"
0%
b1000000000 &
b1000000000 +
b1000000000 5"
b1000000000 ="
b1000000000 K"
#25
1R
b1 o
b1 {
1Q
1S
b1 2
b1 8"
b1 H"
b10 F"
b1000000000 :"
b1000000000 >"
b1000000000 C"
b1000000000 D"
b1000000000 I"
0<"
b10 ?"
b1 @"
b1000000000 B"
1%
#30
0%
b100000000 &
b100000000 +
b100000000 5"
b100000000 ="
b100000000 K"
#35
b1000000000 $
b1000000000 6
b1000000000 v
b1000000000 ""
b1000000000 >
b1000000000 z
b1000000000 !"
b1000000000 '"
b1000000000 -"
b1000000000 3"
b1000000000 ;"
b1000000000 E"
19"
b11 ?"
b10 @"
1%
#40
0%
b100000001 &
b100000001 +
b100000001 5"
b100000001 ="
b100000001 K"
#45
b100000000 $
b100000000 6
b100000000 v
b100000000 ""
b100000000 >
b100000000 z
b100000000 !"
b100000000 '"
b100000000 -"
b100000000 3"
b100000000 ;"
b100000000 E"
b1 F"
b100000000 :"
b100000000 >"
b100000000 C"
b100000000 D"
b100000000 I"
b100000000 B"
b1 A"
b100 ?"
b11 @"
1%
#50
0%
b1100000010 &
b1100000010 +
b1100000010 5"
b1100000010 ="
b1100000010 K"
#55
b10 7"
b10 G"
b10 J"
b100000001 $
b100000001 6
b100000001 v
b100000001 ""
b100000001 >
b100000001 z
b100000001 !"
b100000001 '"
b100000001 -"
b100000001 3"
b100000001 ;"
b100000001 E"
b100000001 :"
b100000001 >"
b100000001 C"
b100000001 D"
b100000001 I"
b100000001 B"
b10 A"
b101 ?"
b100 @"
1%
#60
06"
0%
b0 &
b0 +
b0 5"
b0 ="
b0 K"
#65
b100 7"
b100 G"
b100 J"
b1100000010 $
b1100000010 6
b1100000010 v
b1100000010 ""
b1100000010 >
b1100000010 z
b1100000010 !"
b1100000010 '"
b1100000010 -"
b1100000010 3"
b1100000010 ;"
b1100000010 E"
b11 F"
b1100000010 :"
b1100000010 >"
b1100000010 C"
b1100000010 D"
b1100000010 I"
b1100000010 B"
b11 A"
1%
#70
16"
0%
b1010010001 &
b1010010001 +
b1010010001 5"
b1010010001 ="
b1010010001 K"
#75
b10 f
b1010010001 #
b1010010001 5
b1010010001 u
b1010010001 ("
b1 p
b1 #"
1L
1Z
b10 X
b0 "
b0 4
b0 t
b0 ."
b0 q
b0 )"
0G
b0 o
b0 {
0Q
0a
0S
b10 2
b10 8"
b10 H"
b10 7"
b10 G"
b10 J"
b0 $
b0 6
b0 v
b0 ""
b1010010001 >
b1010010001 z
b1010010001 !"
b1010010001 '"
b1010010001 -"
b1010010001 3"
b1010010001 ;"
b1010010001 E"
b10 F"
b1010010001 :"
b1010010001 >"
b1010010001 C"
b1010010001 D"
b1010010001 I"
b1010010001 B"
b100 A"
b110 ?"
b101 @"
1%
#80
0%
b110010000 &
b110010000 +
b110010000 5"
b110010000 ="
b110010000 K"
#85
b1 7"
b1 G"
b1 J"
b110010000 #
b110010000 5
b110010000 u
b110010000 ("
b110010000 >
b110010000 z
b110010000 !"
b110010000 '"
b110010000 -"
b110010000 3"
b110010000 ;"
b110010000 E"
b1 F"
b110010000 :"
b110010000 >"
b110010000 C"
b110010000 D"
b110010000 I"
b110010000 B"
b101 A"
b111 ?"
b110 @"
b10 Y
b10 g
1%
#90
0%
b110010001 &
b110010001 +
b110010001 5"
b110010001 ="
b110010001 K"
#95
b10 7"
b10 G"
b10 J"
b110010001 #
b110010001 5
b110010001 u
b110010001 ("
b110010001 >
b110010001 z
b110010001 !"
b110010001 '"
b110010001 -"
b110010001 3"
b110010001 ;"
b110010001 E"
b110010001 :"
b110010001 >"
b110010001 C"
b110010001 D"
b110010001 I"
b110010001 B"
b110 A"
b1000 ?"
b111 @"
1%
#100
0%
b1110010010 &
b1110010010 +
b1110010010 5"
b1110010010 ="
b1110010010 K"
#105
b100 7"
b100 G"
b100 J"
b1110010010 #
b1110010010 5
b1110010010 u
b1110010010 ("
b1110010010 >
b1110010010 z
b1110010010 !"
b1110010010 '"
b1110010010 -"
b1110010010 3"
b1110010010 ;"
b1110010010 E"
b11 F"
b1110010010 :"
b1110010010 >"
b1110010010 C"
b1110010010 D"
b1110010010 I"
b1110010010 B"
b111 A"
b1001 ?"
b1000 @"
1%
#110
06"
0%
b0 &
b0 +
b0 5"
b0 ="
b0 K"
#115
0R
b10 _
b0 p
b0 #"
0L
0Z
b0 2
b0 8"
b0 H"
b1 7"
b1 G"
b1 J"
b0 #
b0 5
b0 u
b0 ("
b0 >
b0 z
b0 !"
b0 '"
b0 -"
b0 3"
b0 ;"
b0 E"
b0 F"
1<"
b0 :"
b0 >"
b0 C"
b0 D"
b0 I"
bx B"
b1000 A"
1%
#120
16"
0%
b1000000000 &
b1000000000 +
b1000000000 5"
b1000000000 ="
b1000000000 K"
#125
1R
b1 o
b1 {
1Q
1S
b1 2
b1 8"
b1 H"
b10 F"
b1000000000 :"
b1000000000 >"
b1000000000 C"
b1000000000 D"
b1000000000 I"
0<"
b1010 ?"
b1001 @"
b1000000000 B"
09"
b10 `
1%
#130
0%
b1100001111 &
b1100001111 +
b1100001111 5"
b1100001111 ="
b1100001111 K"
#135
b1000000000 $
b1000000000 6
b1000000000 v
b1000000000 ""
b1000000000 >
b1000000000 z
b1000000000 !"
b1000000000 '"
b1000000000 -"
b1000000000 3"
b1000000000 ;"
b1000000000 E"
19"
b1011 ?"
b1010 @"
1%
#140
0%
b1000000001 &
b1000000001 +
b1000000001 5"
b1000000001 ="
b1000000001 K"
#145
b1000 7"
b1000 G"
b1000 J"
b1100001111 $
b1100001111 6
b1100001111 v
b1100001111 ""
b1100001111 >
b1100001111 z
b1100001111 !"
b1100001111 '"
b1100001111 -"
b1100001111 3"
b1100001111 ;"
b1100001111 E"
b11 F"
b1100001111 :"
b1100001111 >"
b1100001111 C"
b1100001111 D"
b1100001111 I"
b1100001111 B"
b1001 A"
b1100 ?"
b1011 @"
1%
#150
0%
b1100001111 &
b1100001111 +
b1100001111 5"
b1100001111 ="
b1100001111 K"
#155
b10 m
b1000000001 #
b1000000001 5
b1000000001 u
b1000000001 ("
b1 p
b1 #"
1L
1Z
b0 !
b0 3
b0 s
b0 4"
b0 r
b0 /"
0B
b0 o
b0 {
0Q
0h
0S
b10 2
b10 8"
b10 H"
b10 7"
b10 G"
b10 J"
b0 $
b0 6
b0 v
b0 ""
b1000000001 >
b1000000001 z
b1000000001 !"
b1000000001 '"
b1000000001 -"
b1000000001 3"
b1000000001 ;"
b1000000001 E"
b10 F"
b1000000001 :"
b1000000001 >"
b1000000001 C"
b1000000001 D"
b1000000001 I"
b1000000001 B"
b1010 A"
b1101 ?"
b1100 @"
1%
#160
0%
b1000000010 &
b1000000010 +
b1000000010 5"
b1000000010 ="
b1000000010 K"
#165
b1000 7"
b1000 G"
b1000 J"
b1100001111 #
b1100001111 5
b1100001111 u
b1100001111 ("
b1100001111 >
b1100001111 z
b1100001111 !"
b1100001111 '"
b1100001111 -"
b1100001111 3"
b1100001111 ;"
b1100001111 E"
b11 F"
b1100001111 :"
b1100001111 >"
b1100001111 C"
b1100001111 D"
b1100001111 I"
b1100001111 B"
b1011 A"
b1110 ?"
b1101 @"
b10 n
1%
#170
0%
b1100001111 &
b1100001111 +
b1100001111 5"
b1100001111 ="
b1100001111 K"
#175
b1000000010 "
b1000000010 4
b1000000010 t
b1000000010 ."
b1 q
b1 )"
1G
1a
b0 !
b0 3
b0 s
b0 4"
b0 r
b0 /"
0B
b0 p
b0 #"
0L
0h
0Z
b100 2
b100 8"
b100 H"
b100 7"
b100 G"
b100 J"
b0 #
b0 5
b0 u
b0 ("
b1000000010 >
b1000000010 z
b1000000010 !"
b1000000010 '"
b1000000010 -"
b1000000010 3"
b1000000010 ;"
b1000000010 E"
b10 F"
b1000000010 :"
b1000000010 >"
b1000000010 C"
b1000000010 D"
b1000000010 I"
b1000000010 B"
b1100 A"
b1111 ?"
b1110 @"
1%
#180
0%
b1000000011 &
b1000000011 +
b1000000011 5"
b1000000011 ="
b1000000011 K"
#185
b1000 7"
b1000 G"
b1000 J"
b1100001111 "
b1100001111 4
b1100001111 t
b1100001111 ."
b1100001111 >
b1100001111 z
b1100001111 !"
b1100001111 '"
b1100001111 -"
b1100001111 3"
b1100001111 ;"
b1100001111 E"
b11 F"
b1100001111 :"
b1100001111 >"
b1100001111 C"
b1100001111 D"
b1100001111 I"
b1100001111 B"
b1101 A"
b0 ?"
b1111 @"
1%
#190
0%
b1100001111 &
b1100001111 +
b1100001111 5"
b1100001111 ="
b1100001111 K"
#195
b1000000011 !
b1000000011 3
b1000000011 s
b1000000011 4"
b1 r
b1 /"
1B
b0 q
b0 )"
0G
1h
0a
b1000 2
b1000 8"
b1000 H"
b0 "
b0 4
b0 t
b0 ."
b1000000011 >
b1000000011 z
b1000000011 !"
b1000000011 '"
b1000000011 -"
b1000000011 3"
b1000000011 ;"
b1000000011 E"
b10 F"
b1000000011 :"
b1000000011 >"
b1000000011 C"
b1000000011 D"
b1000000011 I"
b1000000011 B"
b1110 A"
b1 ?"
b0 @"
1%
#200
06"
0%
b0 &
b0 +
b0 5"
b0 ="
b0 K"
#205
b1100001111 !
b1100001111 3
b1100001111 s
b1100001111 4"
b1100001111 >
b1100001111 z
b1100001111 !"
b1100001111 '"
b1100001111 -"
b1100001111 3"
b1100001111 ;"
b1100001111 E"
b11 F"
b1100001111 :"
b1100001111 >"
b1100001111 C"
b1100001111 D"
b1100001111 I"
b1100001111 B"
b1111 A"
1%
#210
1M"
0%
b1000010000 '
b1000010000 ,
b1000010000 L"
b1000010000 T"
b1000010000 b"
#215
1M
0R
b10 o
b10 {
1P
b0 r
b0 /"
0B
1T
0h
b1 1
b1 O"
b1 _"
b0 2
b0 8"
b0 H"
b1 7"
b1 G"
b1 J"
b10 ]"
b0 !
b0 3
b0 s
b0 4"
b1000010000 Q"
b1000010000 U"
b1000010000 Z"
b1000010000 ["
b1000010000 `"
b0 >
b0 z
b0 !"
b0 '"
b0 -"
b0 3"
b0 ;"
b0 E"
b0 F"
0S"
1<"
b0 :"
b0 >"
b0 C"
b0 D"
b0 I"
b10 V"
b1 W"
b1000010000 Y"
b1000000000 B"
b0 A"
1%
#220
0%
b1100011111 '
b1100011111 ,
b1100011111 L"
b1100011111 T"
b1100011111 b"
#225
b1000010000 $
b1000010000 6
b1000010000 v
b1000010000 ""
b1000010000 =
b1000010000 y
b1000010000 ~
b1000010000 &"
b1000010000 ,"
b1000010000 2"
b1000010000 R"
b1000010000 \"
09"
b11 V"
b10 W"
1P"
1%
#230
0%
b1000010001 '
b1000010001 ,
b1000010001 L"
b1000010001 T"
b1000010001 b"
#235
b1000 N"
b1000 ^"
b1000 a"
b1100011111 $
b1100011111 6
b1100011111 v
b1100011111 ""
b1100011111 =
b1100011111 y
b1100011111 ~
b1100011111 &"
b1100011111 ,"
b1100011111 2"
b1100011111 R"
b1100011111 \"
b11 ]"
b1100011111 Q"
b1100011111 U"
b1100011111 Z"
b1100011111 ["
b1100011111 `"
b1100011111 Y"
b1 X"
b100 V"
b11 W"
1%
#240
0%
b1100011111 '
b1100011111 ,
b1100011111 L"
b1100011111 T"
b1100011111 b"
#245
b1000010001 #
b1000010001 5
b1000010001 u
b1000010001 ("
b10 p
b10 #"
1K
1[
b0 !
b0 3
b0 s
b0 4"
b0 r
b0 /"
0A
b0 o
b0 {
0P
0i
0T
b10 1
b10 O"
b10 _"
b10 N"
b10 ^"
b10 a"
b0 $
b0 6
b0 v
b0 ""
b1000010001 =
b1000010001 y
b1000010001 ~
b1000010001 &"
b1000010001 ,"
b1000010001 2"
b1000010001 R"
b1000010001 \"
b10 ]"
b1000010001 Q"
b1000010001 U"
b1000010001 Z"
b1000010001 ["
b1000010001 `"
b1000010001 Y"
b10 X"
b101 V"
b100 W"
1%
#250
0%
b1000010010 '
b1000010010 ,
b1000010010 L"
b1000010010 T"
b1000010010 b"
#255
b1000 N"
b1000 ^"
b1000 a"
b1100011111 #
b1100011111 5
b1100011111 u
b1100011111 ("
b1100011111 =
b1100011111 y
b1100011111 ~
b1100011111 &"
b1100011111 ,"
b1100011111 2"
b1100011111 R"
b1100011111 \"
b11 ]"
b1100011111 Q"
b1100011111 U"
b1100011111 Z"
b1100011111 ["
b1100011111 `"
b1100011111 Y"
b11 X"
b110 V"
b101 W"
1%
#260
0%
b1100011111 '
b1100011111 ,
b1100011111 L"
b1100011111 T"
b1100011111 b"
#265
b1000010010 "
b1000010010 4
b1000010010 t
b1000010010 ."
b10 q
b10 )"
1F
1b
b0 !
b0 3
b0 s
b0 4"
b0 r
b0 /"
0A
b0 p
b0 #"
0K
0i
0[
b100 1
b100 O"
b100 _"
b100 N"
b100 ^"
b100 a"
b0 #
b0 5
b0 u
b0 ("
b1000010010 =
b1000010010 y
b1000010010 ~
b1000010010 &"
b1000010010 ,"
b1000010010 2"
b1000010010 R"
b1000010010 \"
b10 ]"
b1000010010 Q"
b1000010010 U"
b1000010010 Z"
b1000010010 ["
b1000010010 `"
b1000010010 Y"
b100 X"
b111 V"
b110 W"
1%
#270
0%
b1000010011 '
b1000010011 ,
b1000010011 L"
b1000010011 T"
b1000010011 b"
#275
b1000 N"
b1000 ^"
b1000 a"
b1100011111 "
b1100011111 4
b1100011111 t
b1100011111 ."
b1100011111 =
b1100011111 y
b1100011111 ~
b1100011111 &"
b1100011111 ,"
b1100011111 2"
b1100011111 R"
b1100011111 \"
b11 ]"
b1100011111 Q"
b1100011111 U"
b1100011111 Z"
b1100011111 ["
b1100011111 `"
b1100011111 Y"
b101 X"
b1000 V"
b111 W"
1%
#280
0%
b1100011111 '
b1100011111 ,
b1100011111 L"
b1100011111 T"
b1100011111 b"
