ex8/pu.vcd
$date
	Fri Jul  3 19:22:38 2020
$end
$version
	Icarus Verilog
$end
$timescale
	1s
$end
$scope module test $end
$scope module pu $end
$var wire 1 ! clk $end
$var wire 1 " rst $end
$var wire 1 # ze $end
$var wire 1 $ we $end
$var wire 2 % wad [1:0] $end
$var wire 1 & sg $end
$var wire 16 ' rwd [15:0] $end
$var wire 1 ( pcwe $end
$var wire 1 ) pcs $end
$var wire 6 * pca [5:0] $end
$var wire 3 + op [2:0] $end
$var wire 16 , o [15:0] $end
$var wire 16 - mrd [15:0] $end
$var wire 16 . lp [15:0] $end
$var wire 2 / liop [1:0] $end
$var wire 8 0 iv [7:0] $end
$var wire 1 1 h $end
$var wire 1 2 dstb $end
$var wire 1 3 dmwe $end
$var wire 1 4 dms $end
$var wire 1 5 cwe $end
$var wire 1 6 ca $end
$var wire 16 7 c [15:0] $end
$var wire 2 8 brad [1:0] $end
$var wire 16 9 bo [15:0] $end
$var wire 16 : b [15:0] $end
$var wire 2 ; arad [1:0] $end
$var wire 16 < ao [15:0] $end
$var wire 16 = a [15:0] $end
$scope module alu $end
$var wire 1 ! clk $end
$var wire 1 " rst $end
$var wire 16 > r [15:0] $end
$var wire 3 ? op [2:0] $end
$var wire 1 2 dstb $end
$var wire 16 @ c [15:0] $end
$var wire 16 A b [15:0] $end
$var wire 16 B a [15:0] $end
$var reg 1 6 ca $end
$var reg 17 C rr [16:0] $end
$var reg 1 & sg $end
$var reg 1 # ze $end
$upscope $end
$scope module asel $end
$var wire 16 D b [15:0] $end
$var wire 1 ) s $end
$var wire 16 E a [15:0] $end
$var reg 16 F o [15:0] $end
$upscope $end
$scope module dec $end
$var wire 1 6 ca $end
$var wire 1 & sg $end
$var wire 1 # ze $end
$var wire 16 G o [15:0] $end
$var reg 1 5 cwe $end
$var reg 1 4 dms $end
$var reg 1 3 dmwe $end
$var reg 1 2 dstb $end
$var reg 1 H f1 $end
$var reg 1 I f2 $end
$var reg 1 1 h $end
$var reg 8 J iv [7:0] $end
$var reg 2 K liop [1:0] $end
$var reg 3 L op [2:0] $end
$var reg 1 ) pcs $end
$var reg 1 ( pcwe $end
$var reg 2 M ra [1:0] $end
$var reg 2 N rb [1:0] $end
$var reg 2 O wad [1:0] $end
$var reg 1 $ we $end
$upscope $end
$scope module dmem $end
$var wire 8 P c [7:0] $end
$var wire 1 ! clk $end
$var wire 1 5 cwe $end
$var wire 16 Q rd [15:0] $end
$var wire 1 " rst $end
$var wire 1 3 we $end
$var wire 16 R wd [15:0] $end
$var reg 8 S c_state [7:0] $end
$upscope $end
$scope module dsel $end
$var wire 16 T a [15:0] $end
$var wire 16 U b [15:0] $end
$var wire 1 4 s $end
$var reg 16 V o [15:0] $end
$upscope $end
$scope module imem $end
$var wire 6 W pc [5:0] $end
$var reg 16 X o [15:0] $end
$upscope $end
$scope module lidx $end
$var wire 8 Y iv [7:0] $end
$var wire 2 Z op [1:0] $end
$var wire 16 [ i [15:0] $end
$var reg 16 \ o [15:0] $end
$upscope $end
$scope module pc $end
$var wire 1 ! clk $end
$var wire 1 1 halt $end
$var wire 6 ] jpc [5:0] $end
$var wire 1 " rst $end
$var wire 1 ( we $end
$var reg 6 ^ pc [5:0] $end
$upscope $end
$scope module rega $end
$var wire 16 _ a [15:0] $end
$var wire 2 ` arad [1:0] $end
$var wire 16 a b [15:0] $end
$var wire 2 b brad [1:0] $end
$var wire 1 ! clk $end
$var wire 1 5 cwe $end
$var wire 1 " rst $end
$var wire 2 c wad [1:0] $end
$var wire 16 d wd [15:0] $end
$var wire 1 $ we $end
$var reg 16 e c [15:0] $end
$upscope $end
$upscope $end
$upscope $end
$enddefinitions $end
#0
$dumpvars
b0 e
b0 d
b0 c
b0 b
b0 a
b0 `
b0 _
b0 ^
b0 ]
b0 \
b0 [
b0 Z
b0 Y
b0 X
b0 W
b0 V
bx U
b0 T
bx S
b0 R
bx Q
b0 P
b0 O
b0 N
b0 M
b10 L
b0 K
b0 J
1I
1H
b0 G
b0 F
b0 E
b0 D
b0 C
b0 B
b0 A
b0 @
b10 ?
b0 >
b0 =
b0 <
b0 ;
b0 :
b0 9
b0 8
b0 7
06
05
04
03
02
01
b0 0
b0 /
b0 .
bx -
b0 ,
b10 +
b0 *
0)
0(
b0 '
0&
b0 %
0$
0#
1"
0!
$end
#5
b0 S
1!
#10
0!
#15
1!
#20
0!
0"
#25
b11 ]
b11 '
b11 V
b11 d
b11 .
b11 >
b11 T
b11 C
b11 9
b11 A
b11 \
b1 /
b1 K
b1 Z
1$
b11 0
b11 J
b11 Y
b1000000100000011 ,
b1000000100000011 G
b1000000100000011 X
0I
0H
b1 D
b1 *
b1 W
b1 ^
1#
1!
#30
0!
#35
b0 ]
b0 '
b0 V
b0 d
b0 .
b0 >
b0 T
b0 C
b0 9
b0 A
b0 \
1I
1H
13
b0 0
b0 J
b0 Y
b1 /
b1 K
b1 Z
0$
b11 <
b11 B
b11 F
b100100000000000 ,
b100100000000000 G
b100100000000000 X
b11 =
b11 E
b11 _
b11 :
b11 R
b11 [
b11 a
0#
b10 D
b10 *
b10 W
b10 ^
1!
#40
0!
#45
b1111 ]
b1111 '
b1111 V
b1111 d
b1111 .
b1111 >
b1111 T
b1111 C
b1111 9
b1111 A
b1111 \
b1111 0
b1111 J
b1111 Y
b1 +
b1 ?
b1 L
15
03
b1 /
b1 K
b1 Z
b1100100000000000 ,
b1100100000000000 G
b1100100000000000 X
1I
1H
b11 D
b11 *
b11 W
b11 ^
1#
b11 -
b11 Q
b11 U
1!
#50
0!
#55
b0 ]
b0 '
b0 V
b0 d
b0 .
b0 >
b0 T
b0 C
b0 9
b0 A
b0 \
b1 P
1I
1H
1$
b0 :
b0 R
b0 [
b0 a
b1 8
b1 N
b1 b
b1 %
b1 O
b1 c
05
b0 0
b0 J
b0 Y
b1 /
b1 K
b1 Z
b10 +
b10 ?
b10 L
b1000010100000000 ,
b1000010100000000 G
b1000010100000000 X
b1 7
b1 @
b1 e
0#
b100 D
b100 *
b100 W
b100 ^
1!
#60
0!
#65
13
b1 /
b1 K
b1 Z
b0 %
b0 O
b0 c
0$
b0 :
b0 R
b0 [
b0 a
b1 8
b1 N
b1 b
b100100100000000 ,
b100100100000000 G
b100100100000000 X
0I
0H
b101 D
b101 *
b101 W
b101 ^
1#
1!
#70
0!
#75
b1110 ]
b1110 '
b1110 V
b1110 d
b1110 .
b1110 >
b1110 T
b1110 C
b1111 9
b1111 A
b1111 \
1I
1H
b1111 0
b1111 J
b1111 Y
b1 +
b1 ?
b1 L
15
03
b1 /
b1 K
b1 Z
b11 :
b11 R
b11 [
b11 a
b0 8
b0 N
b0 b
b1100100000000000 ,
b1100100000000000 G
b1100100000000000 X
b110 D
b110 *
b110 W
b110 ^
bx -
bx Q
bx U
b1 S
1!
#80
0!
#85
b10 ]
b10 '
b10 V
b10 d
b10 9
b10 A
b10 \
b10 .
b10 >
b10 T
1$
b0 :
b0 R
b0 [
b0 a
b10 8
b10 N
b10 b
b10 %
b10 O
b10 c
05
b10 0
b10 J
b10 Y
b1 /
b1 K
b1 Z
b10 +
b10 ?
b10 L
b1000100100000010 ,
b1000100100000010 G
b1000100100000010 X
1I
1H
b10 P
b10 C
b111 D
b111 *
b111 W
b111 ^
0#
b10 7
b10 @
b10 e
1!
#90
0!
#95
b0 ]
b0 '
b0 V
b0 d
b0 .
b0 >
b0 T
b0 C
1I
1H
b0 9
b0 A
b0 \
13
b0 0
b0 J
b0 Y
b1 /
b1 K
b1 Z
b0 %
b0 O
b0 c
0$
b10 8
b10 N
b10 b
b100101000000000 ,
b100101000000000 G
b100101000000000 X
b10 :
b10 R
b10 [
b10 a
b1000 D
b1000 *
b1000 W
b1000 ^
1!
#100
0!
#105
b1101 ]
b1101 '
b1101 V
b1101 d
b1101 .
b1101 >
b1101 T
b1101 C
b1111 9
b1111 A
b1111 \
b1111 0
b1111 J
b1111 Y
b1 +
b1 ?
b1 L
15
03
b1 /
b1 K
b1 Z
b11 :
b11 R
b11 [
b11 a
b0 8
b0 N
b0 b
b1100100000000000 ,
b1100100000000000 G
b1100100000000000 X
1I
1H
b1001 D
b1001 *
b1001 W
b1001 ^
1#
b10 S
1!
#110
0!
#115
b11 ]
b11 '
b11 V
b11 d
b11 .
b11 >
b11 T
b0 9
b0 A
b0 \
b11 P
b11 C
1I
1H
1$
b0 :
b0 R
b0 [
b0 a
b1 8
b1 N
b1 b
b11 %
b11 O
b11 c
05
b0 0
b0 J
b0 Y
b0 /
b0 K
b0 Z
b0 +
b0 ?
b0 L
b101100000001 ,
b101100000001 G
b101100000001 X
b11 7
b11 @
b11 e
0#
b1010 D
b1010 *
b1010 W
b1010 ^
1!
#120
0!
#125
b0 ]
b0 '
b0 V
b0 d
b0 .
b0 >
b0 T
b0 C
13
b1 /
b1 K
b1 Z
1I
1H
b100101100000000 ,
b100101100000000 G
b100101100000000 X
b0 %
b0 O
b0 c
0$
b10 +
b10 ?
b10 L
b11 :
b11 R
b11 [
b11 a
b11 8
b11 N
b11 b
b1011 D
b1011 *
b1011 W
b1011 ^
1!
#130
0!
#135
1I
1H
1$
b0 :
b0 R
b0 [
b0 a
03
b0 /
b0 K
b0 Z
b1 8
b1 N
b1 b
b100000100001 ,
b100000100001 G
b100000100001 X
1#
b1100 D
b1100 *
b1100 W
b1100 ^
b11 S
1!
#140
0!
#145
b10 ]
b10 '
b10 V
b10 d
b10 .
b10 >
b10 T
b10 C
b10 9
b10 A
b10 \
b10 :
b10 R
b10 [
b10 a
b1 %
b1 O
b1 c
0I
0H
b100100100010 ,
b100100100010 G
b100100100010 X
b0 <
b0 B
b0 F
1$
b10 8
b10 N
b10 b
b1101 D
b1101 *
b1101 W
b1101 ^
b0 =
b0 E
b0 _
1!
#150
0!
#155
b11 ]
b11 '
b11 V
b11 d
b11 .
b11 >
b11 T
b11 C
b11 9
b11 A
b11 \
1I
1H
b10 %
b10 O
b10 c
1$
b11 :
b11 R
b11 [
b11 a
b11 8
b11 N
b11 b
b101000100011 ,
b101000100011 G
b101000100011 X
0#
b1110 D
b1110 *
b1110 W
b1110 ^
1!
#160
0!
#165
b1100 ]
b1100 '
b1100 V
b1100 d
b1100 .
b1100 >
b1100 T
b1100 C
b1111 9
b1111 A
b1111 \
b1111 0
b1111 J
b1111 Y
b1 /
b1 K
b1 Z
b1 +
b1 ?
b1 L
15
1I
1H
b1100100000000000 ,
b1100100000000000 G
b1100100000000000 X
b0 %
b0 O
b0 c
0$
b0 :
b0 R
b0 [
b0 a
b0 8
b0 N
b0 b
b1111 D
b1111 *
b1111 W
b1111 ^
1!
#170
0!
#175
b1010 ]
b1010 '
b1010 V
b1010 d
b1010 .
b1010 >
b1010 T
b1010 9
b1010 A
b1010 \
1I
1H
b100 P
b1010 C
1(
05
b1010 0
b1010 J
b1010 Y
b1 /
b1 K
b1 Z
b10 +
b10 ?
b10 L
b100001100001010 ,
b100001100001010 G
b100001100001010 X
b100 7
b100 @
b100 e
b10000 D
b10000 *
b10000 W
b10000 ^
1!
#180
0!
#185
b10 ]
b10 '
b10 V
b10 d
b10 .
b10 >
b10 T
b10 C
b10 9
b10 A
b10 \
1I
1H
1$
b10 :
b10 R
b10 [
b10 a
b1 8
b1 N
b1 b
b0 +
b0 ?
b0 L
b11 %
b11 O
b11 c
0(
b0 0
b0 J
b0 Y
b0 /
b0 K
b0 Z
b101100000001 ,
b101100000001 G
b101100000001 X
b1010 D
b1010 *
b1010 W
b1010 ^
1!
#190
0!
#195
b0 ]
b0 '
b0 V
b0 d
b0 .
b0 >
b0 T
b0 C
b0 9
b0 A
b0 \
1I
1H
13
b1 /
b1 K
b1 Z
b0 %
b0 O
b0 c
0$
b10 +
b10 ?
b10 L
b10 :
b10 R
b10 [
b10 a
b11 8
b11 N
b11 b
b100101100000000 ,
b100101100000000 G
b100101100000000 X
b1011 D
b1011 *
b1011 W
b1011 ^
1!
#200
0!
#205
b10 ]
b10 '
b10 V
b10 d
b10 .
b10 >
b10 T
b10 C
b10 9
b10 A
b10 \
1$
03
b0 /
b0 K
b0 Z
b10 :
b10 R
b10 [
b10 a
b1 8
b1 N
b1 b
b100000100001 ,
b100000100001 G
b100000100001 X
1I
1H
b1100 D
b1100 *
b1100 W
b1100 ^
1#
b100 S
1!
#210
0!
#215
b11 ]
b11 '
b11 V
b11 d
b11 .
b11 >
b11 T
b11 C
b11 9
b11 A
b11 \
1I
1H
b11 :
b11 R
b11 [
b11 a
b1 %
b1 O
b1 c
1$
b10 8
b10 N
b10 b
b10 <
b10 B
b10 F
b100100100010 ,
b100100100010 G
b100100100010 X
b10 =
b10 E
b10 _
0#
b1101 D
b1101 *
b1101 W
b1101 ^
1!
#220
0!
#225
b10 ]
b10 '
b10 V
b10 d
b10 .
b10 >
b10 T
b10 C
b10 9
b10 A
b10 \
1I
1H
b101000100011 ,
b101000100011 G
b101000100011 X
b10 %
b10 O
b10 c
1$
b10 :
b10 R
b10 [
b10 a
b11 8
b11 N
b11 b
b1110 D
b1110 *
b1110 W
b1110 ^
1!
#230
0!
#235
b1011 ]
b1011 '
b1011 V
b1011 d
b1011 .
b1011 >
b1011 T
b1111 9
b1111 A
b1111 \
b1011 C
1I
1H
b1111 0
b1111 J
b1111 Y
b1 /
b1 K
b1 Z
b1 +
b1 ?
b1 L
15
b0 %
b0 O
b0 c
0$
b0 8
b0 N
b0 b
b1100100000000000 ,
b1100100000000000 G
b1100100000000000 X
b1111 D
b1111 *
b1111 W
b1111 ^
1!
#240
0!
#245
b1010 ]
b1010 '
b1010 V
b1010 d
b1010 9
b1010 A
b1010 \
1I
1H
b1010 .
b1010 >
b1010 T
1(
05
b1010 0
b1010 J
b1010 Y
b1 /
b1 K
b1 Z
b10 +
b10 ?
b10 L
b100001100001010 ,
b100001100001010 G
b100001100001010 X
b101 P
b1010 C
b10000 D
b10000 *
b10000 W
b10000 ^
b101 7
b101 @
b101 e
1!
#250
0!
#255
b101 ]
b101 '
b101 V
b101 d
b101 .
b101 >
b101 T
b101 C
b11 9
b11 A
b11 \
1I
1H
1$
b11 :
b11 R
b11 [
b11 a
b1 8
b1 N
b1 b
b0 +
b0 ?
b0 L
b11 %
b11 O
b11 c
0(
b0 0
b0 J
b0 Y
b0 /
b0 K
b0 Z
b101100000001 ,
b101100000001 G
b101100000001 X
b1010 D
b1010 *
b1010 W
b1010 ^
1!
#260
0!
#265
b0 ]
b0 '
b0 V
b0 d
b0 .
b0 >
b0 T
b0 C
b0 9
b0 A
b0 \
13
b1 /
b1 K
b1 Z
1I
1H
b100101100000000 ,
b100101100000000 G
b100101100000000 X
b0 %
b0 O
b0 c
0$
b10 +
b10 ?
b10 L
b101 :
b101 R
b101 [
b101 a
b11 8
b11 N
b11 b
b1011 D
b1011 *
b1011 W
b1011 ^
1!
#270
0!
#275
b11 ]
b11 '
b11 V
b11 d
b11 .
b11 >
b11 T
b11 C
b11 9
b11 A
b11 \
1I
1H
1$
03
b0 /
b0 K
b0 Z
b11 :
b11 R
b11 [
b11 a
b1 8
b1 N
b1 b
b100000100001 ,
b100000100001 G
b100000100001 X
1#
b1100 D
b1100 *
b1100 W
b1100 ^
b101 S
1!
#280
0!
#285
b10 ]
b10 '
b10 V
b10 d
b10 .
b10 >
b10 T
b10 C
b10 9
b10 A
b10 \
b10 :
b10 R
b10 [
b10 a
b1 %
b1 O
b1 c
b100100100010 ,
b100100100010 G
b100100100010 X
1I
1H
b11 <
b11 B
b11 F
1$
b10 8
b10 N
b10 b
b1101 D
b1101 *
b1101 W
b1101 ^
0#
b11 =
b11 E
b11 _
1!
#290
0!
#295
b101 ]
b101 '
b101 V
b101 d
b101 .
b101 >
b101 T
b101 C
b101 9
b101 A
b101 \
1I
1H
b10 %
b10 O
b10 c
1$
b101 :
b101 R
b101 [
b101 a
b11 8
b11 N
b11 b
b101000100011 ,
b101000100011 G
b101000100011 X
b1110 D
b1110 *
b1110 W
b1110 ^
1!
#300
0!
#305
b1010 ]
b1010 '
b1010 V
b1010 d
b1010 .
b1010 >
b1010 T
b1010 C
b1111 9
b1111 A
b1111 \
b1111 0
b1111 J
b1111 Y
b1 /
b1 K
b1 Z
b1 +
b1 ?
b1 L
15
1I
1H
b1100100000000000 ,
b1100100000000000 G
b1100100000000000 X
b0 %
b0 O
b0 c
0$
b11 :
b11 R
b11 [
b11 a
b0 8
b0 N
b0 b
b1111 D
b1111 *
b1111 W
b1111 ^
1!
#310
0!
#315
b1010 ]
b1010 '
b1010 V
b1010 d
b1010 .
b1010 >
b1010 T
b1010 9
b1010 A
b1010 \
1I
1H
b110 P
b1010 C
1(
05
b1010 0
b1010 J
b1010 Y
b1 /
b1 K
b1 Z
b10 +
b10 ?
b10 L
b100001100001010 ,
b100001100001010 G
b100001100001010 X
b110 7
b110 @
b110 e
b10000 D
b10000 *
b10000 W
b10000 ^
1!
#320
0!
#325
b101 ]
b101 '
b101 V
b101 d
b101 .
b101 >
b101 T
b101 C
b10 9
b10 A
b10 \
1I
1H
1$
b10 :
b10 R
b10 [
b10 a
b1 8
b1 N
b1 b
b0 +
b0 ?
b0 L
b11 %
b11 O
b11 c
0(
b0 0
b0 J
b0 Y
b0 /
b0 K
b0 Z
b101100000001 ,
b101100000001 G
b101100000001 X
b1010 D
b1010 *
b1010 W
b1010 ^
1!
#330
0!
#335
b0 ]
b0 '
b0 V
b0 d
b0 .
b0 >
b0 T
b0 C
b0 9
b0 A
b0 \
1I
1H
13
b1 /
b1 K
b1 Z
b0 %
b0 O
b0 c
0$
b10 +
b10 ?
b10 L
b101 :
b101 R
b101 [
b101 a
b11 8
b11 N
b11 b
b100101100000000 ,
b100101100000000 G
b100101100000000 X
b1011 D
b1011 *
b1011 W
b1011 ^
1!
#340
0!
#345
b10 ]
b10 '
b10 V
b10 d
b10 .
b10 >
b10 T
b10 C
b10 9
b10 A
b10 \
1$
03
b0 /
b0 K
b0 Z
b10 :
b10 R
b10 [
b10 a
b1 8
b1 N
b1 b
b100000100001 ,
b100000100001 G
b100000100001 X
1I
1H
b1100 D
b1100 *
b1100 W
b1100 ^
1#
b110 S
1!
#350
0!
#355
b101 ]
b101 '
b101 V
b101 d
b101 .
b101 >
b101 T
b101 C
b101 9
b101 A
b101 \
1I
1H
b101 :
b101 R
b101 [
b101 a
b1 %
b1 O
b1 c
1$
b10 8
b10 N
b10 b
b10 <
b10 B
b10 F
b100100100010 ,
b100100100010 G
b100100100010 X
b10 =
b10 E
b10 _
0#
b1101 D
b1101 *
b1101 W
b1101 ^
1!
#360
0!
#365
1I
1H
b101000100011 ,
b101000100011 G
b101000100011 X
b10 %
b10 O
b10 c
1$
b101 :
b101 R
b101 [
b101 a
b11 8
b11 N
b11 b
b1110 D
b1110 *
b1110 W
b1110 ^
1!
#370
0!
#375
b1001 ]
b1001 '
b1001 V
b1001 d
b1001 .
b1001 >
b1001 T
b1001 C
b1111 9
b1111 A
b1111 \
1I
1H
b1111 0
b1111 J
b1111 Y
b1 /
b1 K
b1 Z
b1 +
b1 ?
b1 L
15
b0 %
b0 O
b0 c
0$
b10 :
b10 R
b10 [
b10 a
b0 8
b0 N
b0 b
b1100100000000000 ,
b1100100000000000 G
b1100100000000000 X
b1111 D
b1111 *
b1111 W
b1111 ^
1!
#380
0!
#385
b1010 ]
b1010 '
b1010 V
b1010 d
b1010 9
b1010 A
b1010 \
1I
1H
b1010 .
b1010 >
b1010 T
1(
05
b1010 0
b1010 J
b1010 Y
b1 /
b1 K
b1 Z
b10 +
b10 ?
b10 L
b100001100001010 ,
b100001100001010 G
b100001100001010 X
b111 P
b1010 C
b10000 D
b10000 *
b10000 W
b10000 ^
b111 7
b111 @
b111 e
1!
#390
0!
#395
b111 ]
b111 '
b111 V
b111 d
b111 .
b111 >
b111 T
b111 C
b101 9
b101 A
b101 \
1I
1H
1$
b101 :
b101 R
b101 [
b101 a
b1 8
b1 N
b1 b
b0 +
b0 ?
b0 L
b11 %
b11 O
b11 c
0(
b0 0
b0 J
b0 Y
b0 /
b0 K
b0 Z
b101100000001 ,
b101100000001 G
b101100000001 X
b1010 D
b1010 *
b1010 W
b1010 ^
1!
#400
0!
#405
b0 ]
b0 '
b0 V
b0 d
b0 .
b0 >
b0 T
b0 C
b0 9
b0 A
b0 \
13
b1 /
b1 K
b1 Z
1I
1H
b100101100000000 ,
b100101100000000 G
b100101100000000 X
b0 %
b0 O
b0 c
0$
b10 +
b10 ?
b10 L
b111 :
b111 R
b111 [
b111 a
b11 8
b11 N
b11 b
b1011 D
b1011 *
b1011 W
b1011 ^
1!
#410
0!
#415
b101 ]
b101 '
b101 V
b101 d
b101 .
b101 >
b101 T
b101 C
b101 9
b101 A
b101 \
1I
1H
1$
03
b0 /
b0 K
b0 Z
b101 :
b101 R
b101 [
b101 a
b1 8
b1 N
b1 b
b100000100001 ,
b100000100001 G
b100000100001 X
1#
b1100 D
b1100 *
b1100 W
b1100 ^
b111 S
1!
#420
0!
#425
b1 %
b1 O
b1 c
b100100100010 ,
b100100100010 G
b100100100010 X
1I
1H
b101 <
b101 B
b101 F
1$
b10 8
b10 N
b10 b
b1101 D
b1101 *
b1101 W
b1101 ^
0#
b101 =
b101 E
b101 _
1!
#430
0!
#435
b111 ]
b111 '
b111 V
b111 d
b111 .
b111 >
b111 T
b111 C
b111 9
b111 A
b111 \
1I
1H
b111 :
b111 R
b111 [
b111 a
b10 %
b10 O
b10 c
1$
b11 8
b11 N
b11 b
b101000100011 ,
b101000100011 G
b101000100011 X
b1110 D
b1110 *
b1110 W
b1110 ^
1!
#440
0!
#445
b1000 ]
b1000 '
b1000 V
b1000 d
b1000 .
b1000 >
b1000 T
b1000 C
b1111 9
b1111 A
b1111 \
b1111 0
b1111 J
b1111 Y
b1 /
b1 K
b1 Z
b1 +
b1 ?
b1 L
15
1I
1H
b1100100000000000 ,
b1100100000000000 G
b1100100000000000 X
b0 %
b0 O
b0 c
0$
b101 :
b101 R
b101 [
b101 a
b0 8
b0 N
b0 b
b1111 D
b1111 *
b1111 W
b1111 ^
1!
#450
0!
#455
b1010 ]
b1010 '
b1010 V
b1010 d
b1010 .
b1010 >
b1010 T
b1010 9
b1010 A
b1010 \
1I
1H
b1000 P
b1010 C
1(
05
b1010 0
b1010 J
b1010 Y
b1 /
b1 K
b1 Z
b10 +
b10 ?
b10 L
b100001100001010 ,
b100001100001010 G
b100001100001010 X
b1000 7
b1000 @
b1000 e
b10000 D
b10000 *
b10000 W
b10000 ^
1!
#460
0!
#465
b101 9
b101 A
b101 \
1I
1H
1$
b1 8
b1 N
b1 b
b0 +
b0 ?
b0 L
b11 %
b11 O
b11 c
0(
b0 0
b0 J
b0 Y
b0 /
b0 K
b0 Z
b101100000001 ,
b101100000001 G
b101100000001 X
b1010 D
b1010 *
b1010 W
b1010 ^
1!
#470
0!
#475
b0 ]
b0 '
b0 V
b0 d
b0 .
b0 >
b0 T
b0 9
b0 A
b0 \
b0 C
1I
1H
13
b1 /
b1 K
b1 Z
b1010 :
b1010 R
b1010 [
b1010 a
b0 %
b0 O
b0 c
0$
b10 +
b10 ?
b10 L
b11 8
b11 N
b11 b
b100101100000000 ,
b100101100000000 G
b100101100000000 X
b1011 D
b1011 *
b1011 W
b1011 ^
1!
#480
0!
#485
b101 ]
b101 '
b101 V
b101 d
b101 .
b101 >
b101 T
b101 C
b101 9
b101 A
b101 \
1$
03
b0 /
b0 K
b0 Z
b101 :
b101 R
b101 [
b101 a
b1 8
b1 N
b1 b
b100000100001 ,
b100000100001 G
b100000100001 X
1I
1H
b1100 D
b1100 *
b1100 W
b1100 ^
1#
b1000 S
1!
#490
0!
#495
b111 ]
b111 '
b111 V
b111 d
b111 .
b111 >
b111 T
b111 C
b111 9
b111 A
b111 \
1I
1H
b111 :
b111 R
b111 [
b111 a
b1 %
b1 O
b1 c
1$
b10 8
b10 N
b10 b
b100100100010 ,
b100100100010 G
b100100100010 X
0#
b1101 D
b1101 *
b1101 W
b1101 ^
1!
#500
0!
#505
b1010 ]
b1010 '
b1010 V
b1010 d
b1010 .
b1010 >
b1010 T
b1010 C
b1010 9
b1010 A
b1010 \
1I
1H
b101000100011 ,
b101000100011 G
b101000100011 X
b10 %
b10 O
b10 c
1$
b1010 :
b1010 R
b1010 [
b1010 a
b11 8
b11 N
b11 b
b1110 D
b1110 *
b1110 W
b1110 ^
1!
#510
0!
#515
b111 ]
b111 '
b111 V
b111 d
b111 .
b111 >
b111 T
b111 C
b1111 9
b1111 A
b1111 \
1I
1H
b1111 0
b1111 J
b1111 Y
b1 /
b1 K
b1 Z
b1 +
b1 ?
b1 L
15
b0 %
b0 O
b0 c
0$
b101 :
b101 R
b101 [
b101 a
b0 8
b0 N
b0 b
b1100100000000000 ,
b1100100000000000 G
b1100100000000000 X
b1111 D
b1111 *
b1111 W
b1111 ^
1!
#520
0!
#525
b1010 ]
b1010 '
b1010 V
b1010 d
b1010 9
b1010 A
b1010 \
1I
1H
b1010 .
b1010 >
b1010 T
1(
05
b1010 0
b1010 J
b1010 Y
b1 /
b1 K
b1 Z
b10 +
b10 ?
b10 L
b100001100001010 ,
b100001100001010 G
b100001100001010 X
b1001 P
b1010 C
b10000 D
b10000 *
b10000 W
b10000 ^
b1001 7
b1001 @
b1001 e
1!
#530
0!
#535
b1100 ]
b1100 '
b1100 V
b1100 d
b1100 .
b1100 >
b1100 T
b1100 C
b111 9
b111 A
b111 \
1I
1H
1$
b111 :
b111 R
b111 [
b111 a
b1 8
b1 N
b1 b
b0 +
b0 ?
b0 L
b11 %
b11 O
b11 c
0(
b0 0
b0 J
b0 Y
b0 /
b0 K
b0 Z
b101100000001 ,
b101100000001 G
b101100000001 X
b1010 D
b1010 *
b1010 W
b1010 ^
1!
#540
0!
#545
b0 ]
b0 '
b0 V
b0 d
b0 .
b0 >
b0 T
b0 C
b0 9
b0 A
b0 \
13
b1 /
b1 K
b1 Z
1I
1H
b100101100000000 ,
b100101100000000 G
b100101100000000 X
b0 %
b0 O
b0 c
0$
b10 +
b10 ?
b10 L
b1100 :
b1100 R
b1100 [
b1100 a
b11 8
b11 N
b11 b
b1011 D
b1011 *
b1011 W
b1011 ^
1!
#550
0!
#555
b111 ]
b111 '
b111 V
b111 d
b111 .
b111 >
b111 T
b111 C
b111 9
b111 A
b111 \
1I
1H
1$
03
b0 /
b0 K
b0 Z
b111 :
b111 R
b111 [
b111 a
b1 8
b1 N
b1 b
b100000100001 ,
b100000100001 G
b100000100001 X
1#
b1100 D
b1100 *
b1100 W
b1100 ^
b1001 S
1!
#560
0!
#565
b1010 ]
b1010 '
b1010 V
b1010 d
b1010 .
b1010 >
b1010 T
b1010 C
b1010 9
b1010 A
b1010 \
b1010 :
b1010 R
b1010 [
b1010 a
b1 %
b1 O
b1 c
b100100100010 ,
b100100100010 G
b100100100010 X
1I
1H
b111 <
b111 B
b111 F
1$
b10 8
b10 N
b10 b
b1101 D
b1101 *
b1101 W
b1101 ^
0#
b111 =
b111 E
b111 _
1!
#570
0!
#575
b1100 ]
b1100 '
b1100 V
b1100 d
b1100 .
b1100 >
b1100 T
b1100 C
b1100 9
b1100 A
b1100 \
1I
1H
b10 %
b10 O
b10 c
1$
b1100 :
b1100 R
b1100 [
b1100 a
b11 8
b11 N
b11 b
b101000100011 ,
b101000100011 G
b101000100011 X
b1110 D
b1110 *
b1110 W
b1110 ^
1!
#580
0!
#585
b110 ]
b110 '
b110 V
b110 d
b110 .
b110 >
b110 T
b110 C
b1111 9
b1111 A
b1111 \
b1111 0
b1111 J
b1111 Y
b1 /
b1 K
b1 Z
b1 +
b1 ?
b1 L
15
1I
1H
b1100100000000000 ,
b1100100000000000 G
b1100100000000000 X
b0 %
b0 O
b0 c
0$
b111 :
b111 R
b111 [
b111 a
b0 8
b0 N
b0 b
b1111 D
b1111 *
b1111 W
b1111 ^
1!
#590
0!
#595
b1010 ]
b1010 '
b1010 V
b1010 d
b1010 .
b1010 >
b1010 T
b1010 9
b1010 A
b1010 \
1I
1H
b1010 P
b1010 C
1(
05
b1010 0
b1010 J
b1010 Y
b1 /
b1 K
b1 Z
b10 +
b10 ?
b10 L
b100001100001010 ,
b100001100001010 G
b100001100001010 X
b1010 7
b1010 @
b1010 e
b10000 D
b10000 *
b10000 W
b10000 ^
1!
#600
0!
#605
b10001 ]
b10001 '
b10001 V
b10001 d
b10001 .
b10001 >
b10001 T
b10001 C
1I
1H
1$
b1010 :
b1010 R
b1010 [
b1010 a
b1 8
b1 N
b1 b
b0 +
b0 ?
b0 L
b11 %
b11 O
b11 c
0(
b0 0
b0 J
b0 Y
b0 /
b0 K
b0 Z
b101100000001 ,
b101100000001 G
b101100000001 X
b1010 D
b1010 *
b1010 W
b1010 ^
1!
#610
0!
#615
b0 ]
b0 '
b0 V
b0 d
b0 .
b0 >
b0 T
b0 C
b0 9
b0 A
b0 \
1I
1H
13
b1 /
b1 K
b1 Z
b0 %
b0 O
b0 c
0$
b10 +
b10 ?
b10 L
b10001 :
b10001 R
b10001 [
b10001 a
b11 8
b11 N
b11 b
b100101100000000 ,
b100101100000000 G
b100101100000000 X
b1011 D
b1011 *
b1011 W
b1011 ^
1!
#620
0!
#625
b1010 ]
b1010 '
b1010 V
b1010 d
b1010 .
b1010 >
b1010 T
b1010 C
b1010 9
b1010 A
b1010 \
1$
03
b0 /
b0 K
b0 Z
b1010 :
b1010 R
b1010 [
b1010 a
b1 8
b1 N
b1 b
b100000100001 ,
b100000100001 G
b100000100001 X
1I
1H
b1100 D
b1100 *
b1100 W
b1100 ^
1#
b1010 S
1!
#630
0!
