ex8/ex8-3-nodec/pu.vcd
$date
	Thu Jun 11 03:35:12 2020
$end
$version
	Icarus Verilog
$end
$timescale
	1s
$end
$scope module test $end
$scope module pu $end
$var wire 1 ! clk $end
$var wire 1 " rst $end
$var wire 1 # ze $end
$var wire 1 $ we $end
$var wire 2 % wad [1:0] $end
$var wire 1 & sg $end
$var wire 16 ' rwd [15:0] $end
$var wire 1 ( pcwe $end
$var wire 1 ) pcs $end
$var wire 6 * pca [5:0] $end
$var wire 3 + op [2:0] $end
$var wire 16 , o [15:0] $end
$var wire 16 - mrd [15:0] $end
$var wire 16 . lp [15:0] $end
$var wire 2 / liop [1:0] $end
$var wire 8 0 iv [7:0] $end
$var wire 1 1 h $end
$var wire 1 2 dstb $end
$var wire 1 3 dmwe $end
$var wire 1 4 dms $end
$var wire 1 5 ca $end
$var wire 2 6 brad [1:0] $end
$var wire 16 7 bo [15:0] $end
$var wire 16 8 b [15:0] $end
$var wire 2 9 arad [1:0] $end
$var wire 16 : ao [15:0] $end
$var wire 16 ; a [15:0] $end
$scope module alu $end
$var wire 1 ! clk $end
$var wire 1 " rst $end
$var wire 16 < r [15:0] $end
$var wire 3 = op [2:0] $end
$var wire 1 2 dstb $end
$var wire 16 > b [15:0] $end
$var wire 16 ? a [15:0] $end
$var reg 1 5 ca $end
$var reg 17 @ rr [16:0] $end
$var reg 1 & sg $end
$var reg 1 # ze $end
$upscope $end
$scope module asel $end
$var wire 16 A b [15:0] $end
$var wire 1 ) s $end
$var wire 16 B a [15:0] $end
$var reg 16 C o [15:0] $end
$upscope $end
$scope module dec $end
$var wire 1 5 ca $end
$var wire 1 & sg $end
$var wire 1 # ze $end
$var wire 16 D o [15:0] $end
$var reg 1 4 dms $end
$var reg 1 3 dmwe $end
$var reg 1 2 dstb $end
$var reg 1 E f1 $end
$var reg 1 F f2 $end
$var reg 1 1 h $end
$var reg 8 G iv [7:0] $end
$var reg 2 H liop [1:0] $end
$var reg 3 I op [2:0] $end
$var reg 1 ) pcs $end
$var reg 1 ( pcwe $end
$var reg 2 J ra [1:0] $end
$var reg 2 K rb [1:0] $end
$var reg 2 L wad [1:0] $end
$var reg 1 $ we $end
$upscope $end
$scope module dmem $end
$var wire 8 M ad [7:0] $end
$var wire 1 ! clk $end
$var wire 16 N rd [15:0] $end
$var wire 1 3 we $end
$var wire 16 O wd [15:0] $end
$upscope $end
$scope module dsel $end
$var wire 16 P a [15:0] $end
$var wire 16 Q b [15:0] $end
$var wire 1 4 s $end
$var reg 16 R o [15:0] $end
$upscope $end
$scope module imem $end
$var wire 6 S pc [5:0] $end
$var reg 16 T o [15:0] $end
$upscope $end
$scope module lidx $end
$var wire 8 U iv [7:0] $end
$var wire 2 V op [1:0] $end
$var wire 16 W i [15:0] $end
$var reg 16 X o [15:0] $end
$upscope $end
$scope module pc $end
$var wire 1 ! clk $end
$var wire 1 1 halt $end
$var wire 6 Y jpc [5:0] $end
$var wire 1 " rst $end
$var wire 1 ( we $end
$var reg 6 Z pc [5:0] $end
$upscope $end
$scope module rega $end
$var wire 16 [ a [15:0] $end
$var wire 2 \ arad [1:0] $end
$var wire 16 ] b [15:0] $end
$var wire 2 ^ brad [1:0] $end
$var wire 1 ! clk $end
$var wire 1 " rst $end
$var wire 2 _ wad [1:0] $end
$var wire 16 ` wd [15:0] $end
$var wire 1 $ we $end
$upscope $end
$upscope $end
$upscope $end
$enddefinitions $end
#0
$dumpvars
b0 `
b0 _
b0 ^
b0 ]
b0 \
b0 [
b0 Z
b0 Y
b0 X
b0 W
b0 V
b0 U
b0 T
b0 S
b0 R
bx Q
b0 P
b0 O
bx N
b0 M
b0 L
b0 K
b0 J
b10 I
b0 H
b0 G
1F
1E
b0 D
b0 C
b0 B
b0 A
b0 @
b0 ?
b0 >
b10 =
b0 <
b0 ;
b0 :
b0 9
b0 8
b0 7
b0 6
05
04
03
12
01
b0 0
b0 /
b0 .
bx -
b0 ,
b10 +
b0 *
0)
0(
b0 '
0&
b0 %
0$
0#
1"
0!
$end
#5
1!
#10
0!
#15
1!
#20
0!
0"
#25
b10110 Y
b1010110 M
b1010110 '
b1010110 R
b1010110 `
b1010110 .
b1010110 <
b1010110 P
b1010110 @
b1010110 7
b1010110 >
b1010110 X
b10 /
b10 H
b10 V
b1010110 0
b1010110 G
b1010110 U
1$
b1000001001010110 ,
b1000001001010110 D
b1000001001010110 T
02
1F
1E
b1 A
b1 *
b1 S
b1 Z
1#
1!
#30
0!
#35
b1010100101010110 '
b1010100101010110 R
b1010100101010110 `
b1010100101010110 .
b1010100101010110 <
b1010100101010110 P
b1010100101010110 @
b1010100101010110 7
b1010100101010110 >
b1010100101010110 X
1F
0E
b10101001 0
b10101001 G
b10101001 U
b11 /
b11 H
b11 V
1$
b1010110 :
b1010110 ?
b1010110 C
b1000001110101001 ,
b1000001110101001 D
b1000001110101001 T
b1010110 ;
b1010110 B
b1010110 [
b1010110 8
b1010110 O
b1010110 W
b1010110 ]
0#
b10 A
b10 *
b10 S
b10 Z
1!
#40
0!
#45
b101001 Y
b10101001 M
b10101001 '
b10101001 R
b10101001 `
b10101001 .
b10101001 <
b10101001 P
b10101001 @
b10101001 7
b10101001 >
b10101001 X
b1 6
b1 K
b1 ^
b1 %
b1 L
b1 _
b1000011010101001 ,
b1000011010101001 D
b1000011010101001 T
0E
1F
b1010100101010110 :
b1010100101010110 ?
b1010100101010110 C
b10101001 0
b10101001 G
b10101001 U
b10 /
b10 H
b10 V
1$
b11 A
b11 *
b11 S
b11 Z
1&
b1010100101010110 ;
b1010100101010110 B
b1010100101010110 [
b0 8
b0 O
b0 W
b0 ]
1!
#50
0!
#55
b101011010101001 '
b101011010101001 R
b101011010101001 `
b101011010101001 .
b101011010101001 <
b101011010101001 P
b101011010101001 @
b101011010101001 7
b101011010101001 >
b101011010101001 X
1E
1F
b1010110 0
b1010110 G
b1010110 U
b11 /
b11 H
b11 V
b1 %
b1 L
b1 _
1$
b1 6
b1 K
b1 ^
b1000011101010110 ,
b1000011101010110 D
b1000011101010110 T
b10101001 8
b10101001 O
b10101001 W
b10101001 ]
0&
b100 A
b100 *
b100 S
b100 Z
1!
#60
0!
#65
b10101011010101001 @
b1010100101010110 7
b1010100101010110 >
b1010100101010110 X
b110 +
b110 =
b110 I
1F
1E
b100001100000 ,
b100001100000 D
b100001100000 T
b0 0
b0 G
b0 U
b0 /
b0 H
b0 V
b0 %
b0 L
b0 _
1$
b0 6
b0 K
b0 ^
b101 A
b101 *
b101 S
b101 Z
b1010100101010110 8
b1010100101010110 O
b1010100101010110 W
b1010100101010110 ]
1!
#70
0!
#75
b10110 Y
b1010110 M
b1010100101010110 '
b1010100101010110 R
b1010100101010110 `
b1010100101010110 .
b1010100101010110 <
b1010100101010110 P
b11010100101010110 @
b101011010101001 7
b101011010101001 >
b101011010101001 X
1F
1E
b1 6
b1 K
b1 ^
b1 9
b1 J
b1 \
b1 %
b1 L
b1 _
1$
b110 +
b110 =
b110 I
b101011010101001 :
b101011010101001 ?
b101011010101001 C
b100101100101 ,
b100101100101 D
b100101100101 T
b101011010101001 ;
b101011010101001 B
b101011010101001 [
b101011010101001 8
b101011010101001 O
b101011010101001 W
b101011010101001 ]
15
b110 A
b110 *
b110 S
b110 Z
1!
#80
0!
#85
b111111 Y
b11111111 M
b1111111111111111 '
b1111111111111111 R
b1111111111111111 `
b1111111111111111 .
b1111111111111111 <
b1111111111111111 P
b11111111111111111 @
b100001100001 ,
b100001100001 D
b100001100001 T
1F
1E
b101011010101001 :
b101011010101001 ?
b101011010101001 C
b1010100101010110 7
b1010100101010110 >
b1010100101010110 X
b0 %
b0 L
b0 _
1$
b110 +
b110 =
b110 I
b1 6
b1 K
b1 ^
b0 9
b0 J
b0 \
b111 A
b111 *
b111 S
b111 Z
1&
b101011010101001 ;
b101011010101001 B
b101011010101001 [
b1010100101010110 8
b1010100101010110 O
b1010100101010110 W
b1010100101010110 ]
1!
#90
0!
#95
b111111 Y
b11111111 M
b1111111111111111 '
b1111111111111111 R
b1111111111111111 `
b1111111111111111 .
b1111111111111111 <
b1111111111111111 P
b1111111111111111 7
b1111111111111111 >
b1111111111111111 X
b1111111111111111 @
1F
0E
b1 /
b1 H
b1 V
b11111111 0
b11111111 G
b11111111 U
b1 %
b1 L
b1 _
1$
b10 +
b10 =
b10 I
b1111111111111111 8
b1111111111111111 O
b1111111111111111 W
b1111111111111111 ]
b0 6
b0 K
b0 ^
b1111111111111111 :
b1111111111111111 ?
b1111111111111111 C
b1000010111111111 ,
b1000010111111111 D
b1000010111111111 T
b1111111111111111 ;
b1111111111111111 B
b1111111111111111 [
b1000 A
b1000 *
b1000 S
b1000 Z
1!
#100
0!
#105
b111 Y
b111 M
b111 '
b111 R
b111 `
b111 .
b111 <
b111 P
b111 @
b111 7
b111 >
b111 X
1E
b1000100100000111 ,
b1000100100000111 D
b1000100100000111 T
1F
b111 0
b111 G
b111 U
b1 /
b1 H
b1 V
b10 %
b10 L
b10 _
1$
b1001 A
b1001 *
b1001 S
b1001 Z
05
1!
#110
0!
#115
b0 Y
b10000000 M
b1111111110000000 '
b1111111110000000 R
b1111111110000000 `
b1111111110000000 .
b1111111110000000 <
b1111111110000000 P
b11111111110000000 @
1F
1E
b111 8
b111 O
b111 W
b111 ]
b10 6
b10 K
b10 ^
b1 9
b1 J
b1 \
b101 +
b101 =
b101 I
b0 0
b0 G
b0 U
b0 /
b0 H
b0 V
b1 %
b1 L
b1 _
1$
b100101010110 ,
b100101010110 D
b100101010110 T
0&
b1010 A
b1010 *
b1010 S
b1010 Z
1!
#120
0!
#125
b111111 Y
b11111111 M
b1111111111111111 '
b1111111111111111 R
b1111111111111111 `
b1111111 7
b1111111 >
b1111111 X
b1111111111111111 .
b1111111111111111 <
b1111111111111111 P
b1 /
b1 H
b1 V
b1111111 0
b1111111 G
b1111111 U
b1111111111111111 @
b10010101111111 ,
b10010101111111 D
b10010101111111 T
1F
1E
b1111111110000000 :
b1111111110000000 ?
b1111111110000000 C
b1 %
b1 L
b1 _
1$
b0 +
b0 =
b0 I
b1111111111111111 8
b1111111111111111 O
b1111111111111111 W
b1111111111111111 ]
b0 6
b0 K
b0 ^
b1 9
b1 J
b1 \
b1011 A
b1011 *
b1011 S
b1011 Z
15
1&
b1111111110000000 ;
b1111111110000000 B
b1111111110000000 [
1!
#130
0!
#135
b0 Y
b0 M
b0 '
b0 R
b0 `
b0 .
b0 <
b0 P
b1111111111111111 7
b1111111111111111 >
b1111111111111111 X
b0 @
1F
1E
b1 6
b1 K
b1 ^
b0 0
b0 G
b0 U
b0 /
b0 H
b0 V
b0 %
b0 L
b0 _
0$
b1 +
b1 =
b1 I
b0 9
b0 J
b0 \
b1111111111111111 :
b1111111111111111 ?
b1111111111111111 C
b110000010001 ,
b110000010001 D
b110000010001 T
b1111111111111111 ;
b1111111111111111 B
b1111111111111111 [
05
b1100 A
b1100 *
b1100 S
b1100 Z
1!
#140
0!
#145
b1111 Y
b1111 M
b1111 '
b1111 R
b1111 `
b1111 .
b1111 <
b1111 P
b10 7
b10 >
b10 X
b1101 :
b1101 ?
b1101 C
b1111 @
1(
b1 /
b1 H
b1 V
b10 0
b10 G
b10 U
1)
b101110100000010 ,
b101110100000010 D
b101110100000010 T
b0 +
b0 =
b0 I
b0 6
b0 K
b0 ^
1F
0E
b1101 A
b1101 *
b1101 S
b1101 Z
0&
1#
1!
#150
0!
#155
b111111 Y
b11111111 M
b1111111111111111 '
b1111111111111111 R
b1111111111111111 `
b1111111111111111 .
b1111111111111111 <
b1111111111111111 P
b1111111111111111 7
b1111111111111111 >
b1111111111111111 X
b1111111111111111 @
1E
1F
b1 6
b1 K
b1 ^
1$
b1 %
b1 L
b1 _
0)
0(
b0 0
b0 G
b0 U
b0 /
b0 H
b0 V
b10 +
b10 =
b10 I
b1111111111111111 :
b1111111111111111 ?
b1111111111111111 C
b100100100001 ,
b100100100001 D
b100100100001 T
0#
b1111 A
b1111 *
b1111 S
b1111 Z
1!
#160
0!
#165
b10010 Y
b10010 M
b10010 '
b10010 R
b10010 `
b10010 .
b10010 <
b10010 P
b10010 @
b10 7
b10 >
b10 X
b10000 :
b10000 ?
b10000 C
1(
b0 +
b0 =
b0 I
b1 /
b1 H
b1 V
b10 0
b10 G
b10 U
1)
b101111100000010 ,
b101111100000010 D
b101111100000010 T
b0 %
b0 L
b0 _
0$
b0 6
b0 K
b0 ^
1F
0E
b10000 A
b10000 *
b10000 S
b10000 Z
1&
1!
#170
0!
#175
b0 Y
b0 M
b0 '
b0 R
b0 `
b0 .
b0 <
b0 P
b1 7
b1 >
b1 X
b10000000000000000 @
1E
1F
1$
b1 %
b1 L
b1 _
0)
0(
b1 0
b1 G
b1 U
b1 /
b1 H
b1 V
b0 +
b0 =
b0 I
b1111111111111111 :
b1111111111111111 ?
b1111111111111111 C
b10010000000001 ,
b10010000000001 D
b10010000000001 T
0&
b10010 A
b10010 *
b10010 S
b10010 Z
1!
#180
0!
#185
b10101 Y
b10101 M
b10101 '
b10101 R
b10101 `
b10101 .
b10101 <
b10101 P
b10101 @
b10011 :
b10011 ?
b10011 C
b10 7
b10 >
b10 X
1(
1)
b101110100000010 ,
b101110100000010 D
b101110100000010 T
1F
0E
b10 0
b10 G
b10 U
b1 /
b1 H
b1 V
b0 %
b0 L
b0 _
0$
b0 +
b0 =
b0 I
b10011 A
b10011 *
b10011 S
b10011 Z
15
1#
1!
#190
0!
#195
b0 Y
b0 M
b0 '
b0 R
b0 `
b0 .
b0 <
b0 P
b0 7
b0 >
b0 X
b0 @
1E
1F
b0 8
b0 O
b0 W
b0 ]
b1 6
b1 K
b1 ^
1$
b1 %
b1 L
b1 _
0)
0(
b0 0
b0 G
b0 U
b0 /
b0 H
b0 V
b10 +
b10 =
b10 I
b1111111111111111 :
b1111111111111111 ?
b1111111111111111 C
b100100100001 ,
b100100100001 D
b100100100001 T
05
0#
b10101 A
b10101 *
b10101 S
b10101 Z
1!
#200
0!
#205
b111111 Y
b11111111 M
b1111111111111111 '
b1111111111111111 R
b1111111111111111 `
b1111111111111111 .
b1111111111111111 <
b1111111111111111 P
b1111111111111111 @
b1111111111111111 7
b1111111111111111 >
b1111111111111111 X
b100110100000010 ,
b100110100000010 D
b100110100000010 T
b0 %
b0 L
b0 _
0$
b1111111111111111 8
b1111111111111111 O
b1111111111111111 W
b1111111111111111 ]
b0 6
b0 K
b0 ^
0F
0E
b10110 A
b10110 *
b10110 S
b10110 Z
1#
1!
#210
0!
#215
b11001 Y
b11001 M
b11001 '
b11001 R
b11001 `
b11001 .
b11001 <
b11001 P
b11001 @
b10 7
b10 >
b10 X
b10111 :
b10111 ?
b10111 C
1(
b0 +
b0 =
b0 I
b1 /
b1 H
b1 V
b10 0
b10 G
b10 U
1)
1F
1E
b101110000000010 ,
b101110000000010 D
b101110000000010 T
1&
0#
b10111 A
b10111 *
b10111 S
b10111 Z
1!
#220
0!
#225
b1 Y
b1 M
b1 '
b1 R
b1 `
b1 7
b1 >
b1 X
b1 .
b1 <
b1 P
13
b1 @
b1111111111111111 :
b1111111111111111 ?
b1111111111111111 C
b101100000000001 ,
b101100000000001 D
b101100000000001 T
0)
0(
b1 0
b1 G
b1 U
b1 /
b1 H
b1 V
b10 +
b10 =
b10 I
1F
1E
b11001 A
b11001 *
b11001 S
b11001 Z
0&
1!
#230
0!
#235
b111111 Y
b1111111111111111 '
b1111111111111111 R
b1111111111111111 `
1F
1E
14
1$
b11 %
b11 L
b11 _
03
b1 0
b1 G
b1 U
b1 /
b1 H
b1 V
b1001110000000001 ,
b1001110000000001 D
b1001110000000001 T
b11010 A
b11010 *
b11010 S
b11010 Z
b1111111111111111 -
b1111111111111111 N
b1111111111111111 Q
1!
#240
0!
#245
bx -
bx N
bx Q
b11111111 M
b1111111111111111 .
b1111111111111111 <
b1111111111111111 P
b111111 Y
b1111111111111111 @
b1111111111111111 '
b1111111111111111 R
b1111111111111111 `
b1111111111111111 7
b1111111111111111 >
b1111111111111111 X
11
1F
1E
b1 ,
b1 D
b1 T
04
b0 0
b0 G
b0 U
b0 /
b0 H
b0 V
b0 %
b0 L
b0 _
0$
b11011 A
b11011 *
b11011 S
b11011 Z
1!
#250
0!
#255
11
1F
1E
1&
1!
