ex8/ex8-1-imm/pu.vcd
$date
	Thu Jun 11 03:33:36 2020
$end
$version
	Icarus Verilog
$end
$timescale
	1s
$end
$scope module test $end
$scope module pu $end
$var wire 1 ! clk $end
$var wire 1 " rst $end
$var wire 1 # we $end
$var wire 16 $ wd [15:0] $end
$var wire 2 % wad [1:0] $end
$var wire 6 & pca [5:0] $end
$var wire 3 ' op [2:0] $end
$var wire 16 ( o [15:0] $end
$var wire 2 ) liop [1:0] $end
$var wire 8 * iv [7:0] $end
$var wire 1 + h $end
$var wire 2 , brad [1:0] $end
$var wire 16 - bo [15:0] $end
$var wire 16 . b [15:0] $end
$var wire 2 / arad [1:0] $end
$var wire 16 0 a [15:0] $end
$scope module alu $end
$var wire 3 1 op [2:0] $end
$var wire 16 2 b [15:0] $end
$var wire 16 3 a [15:0] $end
$var reg 16 4 r [15:0] $end
$upscope $end
$scope module dec $end
$var wire 16 5 o [15:0] $end
$var reg 2 6 arad [1:0] $end
$var reg 2 7 brad [1:0] $end
$var reg 1 + h $end
$var reg 8 8 iv [7:0] $end
$var reg 2 9 liop [1:0] $end
$var reg 3 : op [2:0] $end
$var reg 2 ; wad [1:0] $end
$var reg 1 # we $end
$upscope $end
$scope module imem $end
$var wire 6 < pc [5:0] $end
$var reg 16 = o [15:0] $end
$upscope $end
$scope module lidx $end
$var wire 8 > iv [7:0] $end
$var wire 2 ? op [1:0] $end
$var wire 16 @ i [15:0] $end
$var reg 16 A o [15:0] $end
$upscope $end
$scope module pc $end
$var wire 1 ! clk $end
$var wire 1 + halt $end
$var wire 1 " rst $end
$var reg 6 B pc [5:0] $end
$upscope $end
$scope module rega $end
$var wire 16 C a [15:0] $end
$var wire 2 D arad [1:0] $end
$var wire 16 E b [15:0] $end
$var wire 2 F brad [1:0] $end
$var wire 1 ! clk $end
$var wire 1 " rst $end
$var wire 2 G wad [1:0] $end
$var wire 16 H wd [15:0] $end
$var wire 1 # we $end
$upscope $end
$upscope $end
$upscope $end
$enddefinitions $end
#0
$dumpvars
b10101001 H
b0 G
b0 F
b0 E
b0 D
b0 C
b0 B
b10101001 A
b0 @
b10 ?
b10101001 >
b100000010101001 =
b0 <
b0 ;
b10 :
b10 9
b10101001 8
b0 7
b0 6
b100000010101001 5
b10101001 4
b0 3
b10101001 2
b10 1
b0 0
b0 /
b0 .
b10101001 -
b0 ,
0+
b10101001 *
b10 )
b100000010101001 (
b10 '
b0 &
b0 %
b10101001 $
1#
1"
0!
$end
#5
1!
#10
0!
#15
1!
#20
0!
0"
#25
b10010101001 $
b10010101001 4
b10010101001 H
b10010101001 -
b10010101001 2
b10010101001 A
b100 *
b100 8
b100 >
b11 )
b11 9
b11 ?
1#
b10 '
b10 1
b10 :
b101000000000100 (
b101000000000100 5
b101000000000100 =
b1 &
b1 <
b1 B
b10101001 0
b10101001 3
b10101001 C
b10101001 .
b10101001 @
b10101001 E
1!
#30
0!
#35
b1010110 $
b1010110 4
b1010110 H
b1010110 -
b1010110 2
b1010110 A
b1 ,
b1 7
b1 F
b1 %
b1 ;
b1 G
b1010110 *
b1010110 8
b1010110 >
b10 )
b10 9
b10 ?
1#
b10 '
b10 1
b10 :
b100010101010110 (
b100010101010110 5
b100010101010110 =
b10010101001 0
b10010101001 3
b10010101001 C
b0 .
b0 @
b0 E
b10 &
b10 <
b10 B
1!
#40
0!
#45
b10001010110 $
b10001010110 4
b10001010110 H
b10001010110 -
b10001010110 2
b10001010110 A
b100 *
b100 8
b100 >
b11 )
b11 9
b11 ?
b1 %
b1 ;
b1 G
1#
b10 '
b10 1
b10 :
b1 ,
b1 7
b1 F
b101010100000100 (
b101010100000100 5
b101010100000100 =
b11 &
b11 <
b11 B
b1010110 .
b1010110 @
b1010110 E
1!
#50
0!
#55
b100011111111 $
b100011111111 4
b100011111111 H
b0 *
b0 8
b0 >
b0 )
b0 9
b0 ?
b10 %
b10 ;
b10 G
1#
b0 '
b0 1
b0 :
b1 ,
b1 7
b1 F
b100000000101 (
b100000000101 5
b100000000101 =
b10001010110 .
b10001010110 @
b10001010110 E
b100 &
b100 <
b100 B
1!
#60
0!
#65
b100101010010 $
b100101010010 4
b100101010010 H
b10010101001 -
b10010101001 2
b10010101001 A
b0 %
b0 ;
b0 G
0#
b10010101001 .
b10010101001 @
b10010101001 E
b0 ,
b0 7
b0 F
b0 (
b0 5
b0 =
b101 &
b101 <
b101 B
1!
#70
0!
#75
1+
b1 (
b1 5
b1 =
b110 &
b110 <
b110 B
1!
